{
  "log": {
    "_recordingName": "Acceptance | user | user/visiting users",
    "browser": {
      "name": "Chrome",
      "version": "80.0.3987.149"
    },
    "creator": {
      "comment": "persister:rest",
      "name": "Polly.JS",
      "version": "4.0.2"
    },
    "entries": [
      {
        "_id": "241894a2047d1685f1f6483b6e9d0010",
        "_order": 0,
        "cache": {},
        "request": {
          "bodySize": 0,
          "cookies": [],
          "headers": [
            {
              "name": "accept",
              "value": "application/vnd.api+json"
            },
            {
              "name": "content-type",
              "value": "text/plain;charset=utf-8"
            }
          ],
          "headersSize": 212,
          "httpVersion": "HTTP/1.1",
          "method": "GET",
          "queryString": [
            {
              "name": "page",
              "value": {
                "number": "1",
                "size": "25"
              }
            },
            {
              "name": "provider-id",
              "value": ""
            },
            {
              "name": "query",
              "value": ""
            },
            {
              "name": "repository-id",
              "value": ""
            },
            {
              "name": "size",
              "value": "25"
            },
            {
              "name": "sort",
              "value": ""
            }
          ],
          "url": "https://api.test.datacite.org/users?page%5Bnumber%5D=1&page%5Bsize%5D=25&provider-id=&query=&repository-id=&size=25&sort="
        },
        "response": {
          "bodySize": 8242,
          "content": {
            "mimeType": "application/json; charset=utf-8",
            "size": 8242,
            "text": "{\"data\":[{\"id\":\"0000-0001-9354-2586\",\"type\":\"users\",\"attributes\":{\"givenNames\":\"Dongmei\",\"familyName\":\" Deng\",\"name\":\"Dongmei  Deng\",\"orcid\":\"https://orcid.org/0000-0001-9354-2586\",\"github\":null,\"roleId\":\"user\",\"isActive\":false,\"created\":\"2020-02-09T17:40:00.000Z\",\"updated\":\"2020-02-09T17:40:00.000Z\"},\"relationships\":{}},{\"id\":\"0000-0002-0045-3769\",\"type\":\"users\",\"attributes\":{\"givenNames\":\"Bernard\",\"familyName\":\"'t Hart\",\"name\":\"Bernard Marius 't Hart\",\"orcid\":\"https://orcid.org/0000-0002-0045-3769\",\"github\":null,\"roleId\":\"user\",\"isActive\":false,\"created\":\"2020-02-09T17:38:11.000Z\",\"updated\":\"2020-02-09T17:38:11.000Z\"},\"relationships\":{}},{\"id\":\"0000-0002-2220-6072\",\"type\":\"users\",\"attributes\":{\"givenNames\":\"Michael\",\"familyName\":\"'t Sas-Rolfes\",\"name\":\"Michael 't Sas-Rolfes\",\"orcid\":\"https://orcid.org/0000-0002-2220-6072\",\"github\":null,\"roleId\":\"user\",\"isActive\":false,\"created\":\"2017-12-15T16:50:05.000Z\",\"updated\":\"2017-12-15T16:50:05.000Z\"},\"relationships\":{}},{\"id\":\"0000-0002-6694-1650\",\"type\":\"users\",\"attributes\":{\"givenNames\":\"A.F.M. Sajidul Qadir\",\"familyName\":\".\",\"name\":\"A.F.M. Sajidul Qadir .\",\"orcid\":\"https://orcid.org/0000-0002-6694-1650\",\"github\":null,\"roleId\":\"user\",\"isActive\":false,\"created\":\"2017-12-24T08:23:11.000Z\",\"updated\":\"2017-12-24T08:23:11.000Z\"},\"relationships\":{}},{\"id\":\"0000-0003-1564-2260\",\"type\":\"users\",\"attributes\":{\"givenNames\":\"Ramadiani\",\"familyName\":\".\",\"name\":\"Ramadiani .\",\"orcid\":\"https://orcid.org/0000-0003-1564-2260\",\"github\":null,\"roleId\":\"user\",\"isActive\":false,\"created\":\"2018-04-01T11:06:30.000Z\",\"updated\":\"2018-04-01T18:22:06.000Z\"},\"relationships\":{}},{\"id\":\"0000-0002-6097-6115\",\"type\":\"users\",\"attributes\":{\"givenNames\":\"?\",\"familyName\":\"?\",\"name\":\"? ?\",\"orcid\":\"https://orcid.org/0000-0002-6097-6115\",\"github\":null,\"roleId\":\"user\",\"isActive\":false,\"created\":\"2019-12-06T20:40:58.000Z\",\"updated\":\"2019-12-06T20:40:59.000Z\"},\"relationships\":{}},{\"id\":\"0000-0001-6116-594X\",\"type\":\"users\",\"attributes\":{\"givenNames\":\"Senthil Kumar\",\"familyName\":\"A\",\"name\":\"Senthil Kumar A\",\"orcid\":\"https://orcid.org/0000-0001-6116-594X\",\"github\":null,\"roleId\":\"user\",\"isActive\":false,\"created\":\"2015-11-17T11:57:10.000Z\",\"updated\":\"2015-11-17T11:57:10.000Z\"},\"relationships\":{}},{\"id\":\"0000-0002-6909-1823\",\"type\":\"users\",\"attributes\":{\"givenNames\":\"Ramesh\",\"familyName\":\"A\",\"name\":\"Ramesh A\",\"orcid\":\"https://orcid.org/0000-0002-6909-1823\",\"github\":null,\"roleId\":\"user\",\"isActive\":false,\"created\":\"2015-12-01T11:08:45.000Z\",\"updated\":\"2017-11-13T15:59:45.000Z\"},\"relationships\":{}},{\"id\":\"0000-0002-2611-5178\",\"type\":\"users\",\"attributes\":{\"givenNames\":\"Andrew Roobert\",\"familyName\":\"A\",\"name\":\"Andrew Roobert A\",\"orcid\":\"https://orcid.org/0000-0002-2611-5178\",\"github\":null,\"roleId\":\"user\",\"isActive\":false,\"created\":\"2018-01-16T18:34:37.000Z\",\"updated\":\"2018-01-16T18:34:37.000Z\"},\"relationships\":{}},{\"id\":\"0000-0001-8778-9902\",\"type\":\"users\",\"attributes\":{\"givenNames\":\"Ebinesh\",\"familyName\":\"A\",\"name\":\"Ebinesh A.\",\"orcid\":\"https://orcid.org/0000-0001-8778-9902\",\"github\":null,\"roleId\":\"user\",\"isActive\":false,\"created\":\"2016-04-27T05:32:24.000Z\",\"updated\":\"2016-04-27T05:32:24.000Z\"},\"relationships\":{}},{\"id\":\"0000-0001-8707-9927\",\"type\":\"users\",\"attributes\":{\"givenNames\":\"Sheik Abdullah\",\"familyName\":\"A\",\"name\":\"Sheik Abdullah A\",\"orcid\":\"https://orcid.org/0000-0001-8707-9927\",\"github\":null,\"roleId\":\"user\",\"isActive\":false,\"created\":\"2017-10-20T09:19:56.000Z\",\"updated\":\"2017-10-20T09:19:56.000Z\"},\"relationships\":{}},{\"id\":\"0000-0003-0357-8572\",\"type\":\"users\",\"attributes\":{\"givenNames\":\"Aadhityan\",\"familyName\":\"A\",\"name\":\"Aadhityan A\",\"orcid\":\"https://orcid.org/0000-0003-0357-8572\",\"github\":null,\"roleId\":\"user\",\"isActive\":false,\"created\":\"2016-03-13T11:56:36.000Z\",\"updated\":\"2016-03-13T11:56:36.000Z\"},\"relationships\":{}},{\"id\":\"0000-0003-3722-7084\",\"type\":\"users\",\"attributes\":{\"givenNames\":\"Hélde\",\"familyName\":\"A Domingos\",\"name\":\"Hélde A. Domingos\",\"orcid\":\"https://orcid.org/0000-0003-3722-7084\",\"github\":null,\"roleId\":\"user\",\"isActive\":false,\"created\":\"2017-06-20T21:27:00.000Z\",\"updated\":\"2017-06-20T21:28:02.000Z\"},\"relationships\":{}},{\"id\":\"0000-0003-3173-8852\",\"type\":\"users\",\"attributes\":{\"givenNames\":\"muna\",\"familyName\":\"A M Elnemr\",\"name\":\"muna A M Elnemr\",\"orcid\":\"https://orcid.org/0000-0003-3173-8852\",\"github\":null,\"roleId\":\"user\",\"isActive\":false,\"created\":\"2018-01-24T11:32:21.000Z\",\"updated\":\"2018-01-24T11:36:09.000Z\"},\"relationships\":{}},{\"id\":\"0000-0002-0320-360X\",\"type\":\"users\",\"attributes\":{\"givenNames\":\"Dr Abba\",\"familyName\":\"A. Abba\",\"name\":\"Dr Abba A. Abba\",\"orcid\":\"https://orcid.org/0000-0002-0320-360X\",\"github\":null,\"roleId\":\"user\",\"isActive\":false,\"created\":\"2018-05-11T18:19:20.000Z\",\"updated\":\"2018-05-11T18:19:20.000Z\"},\"relationships\":{}},{\"id\":\"0000-0002-4166-4263\",\"type\":\"users\",\"attributes\":{\"givenNames\":\"Sreejith\",\"familyName\":\"A. G.\",\"name\":\"Sreejith A. G.\",\"orcid\":\"https://orcid.org/0000-0002-4166-4263\",\"github\":null,\"roleId\":\"user\",\"isActive\":false,\"created\":\"2016-11-01T04:46:18.000Z\",\"updated\":\"2016-11-01T04:46:18.000Z\"},\"relationships\":{}},{\"id\":\"0000-0001-9149-7371\",\"type\":\"users\",\"attributes\":{\"givenNames\":\"Ignacio\",\"familyName\":\"A. Lazagabaster\",\"name\":\"Ignacio A. Lazagabaster\",\"orcid\":\"https://orcid.org/0000-0001-9149-7371\",\"github\":null,\"roleId\":\"user\",\"isActive\":false,\"created\":\"2016-11-21T22:46:06.000Z\",\"updated\":\"2016-11-21T22:46:43.000Z\"},\"relationships\":{}},{\"id\":\"0000-0001-7699-5962\",\"type\":\"users\",\"attributes\":{\"givenNames\":\"Khumran\",\"familyName\":\"A. M.\",\"name\":\"Khumran A. M.\",\"orcid\":\"https://orcid.org/0000-0001-7699-5962\",\"github\":null,\"roleId\":\"user\",\"isActive\":false,\"created\":\"2015-12-22T16:39:09.000Z\",\"updated\":\"2015-12-22T16:39:13.000Z\"},\"relationships\":{}},{\"id\":\"0000-0002-5204-4457\",\"type\":\"users\",\"attributes\":{\"givenNames\":\"Everton\",\"familyName\":\"A. Maciel\",\"name\":\"Everton A. Maciel\",\"orcid\":\"https://orcid.org/0000-0002-5204-4457\",\"github\":null,\"roleId\":\"user\",\"isActive\":false,\"created\":\"2016-10-13T00:26:01.000Z\",\"updated\":\"2016-10-13T00:26:01.000Z\"},\"relationships\":{}},{\"id\":\"0000-0001-7641-8655\",\"type\":\"users\",\"attributes\":{\"givenNames\":\"Jucilene A.\",\"familyName\":\"A. Monteiro\",\"name\":\"Jucilene A. A. Monteiro\",\"orcid\":\"https://orcid.org/0000-0001-7641-8655\",\"github\":null,\"roleId\":\"user\",\"isActive\":false,\"created\":\"2018-02-19T22:38:40.000Z\",\"updated\":\"2018-02-19T22:38:40.000Z\"},\"relationships\":{}},{\"id\":\"0000-0002-1702-8929\",\"type\":\"users\",\"attributes\":{\"givenNames\":\"Belal\",\"familyName\":\"A. Rakhieh\",\"name\":\"Belal A. Rakhieh\",\"orcid\":\"https://orcid.org/0000-0002-1702-8929\",\"github\":null,\"roleId\":\"user\",\"isActive\":false,\"created\":\"2018-02-08T17:20:57.000Z\",\"updated\":\"2018-02-08T17:20:57.000Z\"},\"relationships\":{}},{\"id\":\"0000-0003-3475-0363\",\"type\":\"users\",\"attributes\":{\"givenNames\":\"Seidu\",\"familyName\":\"A. Richard\",\"name\":\"Seidu A. Richard\",\"orcid\":\"https://orcid.org/0000-0003-3475-0363\",\"github\":null,\"roleId\":\"user\",\"isActive\":false,\"created\":\"2017-12-31T16:16:23.000Z\",\"updated\":\"2017-12-31T16:16:23.000Z\"},\"relationships\":{}},{\"id\":\"0000-0003-0057-4752\",\"type\":\"users\",\"attributes\":{\"givenNames\":\"Ali\",\"familyName\":\"A. Semendary\",\"name\":\"Ali A. Semendary\",\"orcid\":\"https://orcid.org/0000-0003-0057-4752\",\"github\":null,\"roleId\":\"user\",\"isActive\":false,\"created\":\"2020-02-09T17:38:26.000Z\",\"updated\":\"2020-02-09T17:38:26.000Z\"},\"relationships\":{}},{\"id\":\"0000-0001-8331-1389\",\"type\":\"users\",\"attributes\":{\"givenNames\":\"Peter\",\"familyName\":\"Aaby\",\"name\":\"Peter Aaby\",\"orcid\":\"https://orcid.org/0000-0001-8331-1389\",\"github\":null,\"roleId\":\"user\",\"isActive\":false,\"created\":\"2017-09-26T08:01:43.000Z\",\"updated\":\"2017-09-26T08:01:43.000Z\"},\"relationships\":{}},{\"id\":\"0000-0002-3260-7005\",\"type\":\"users\",\"attributes\":{\"givenNames\":\"Jesper\",\"familyName\":\"Aagaard\",\"name\":\"Jesper Aagaard\",\"orcid\":\"https://orcid.org/0000-0002-3260-7005\",\"github\":null,\"roleId\":\"user\",\"isActive\":false,\"created\":\"2016-03-10T19:26:25.000Z\",\"updated\":\"2016-03-10T19:26:25.000Z\"},\"relationships\":{}}],\"meta\":{\"total\":66490,\"totalPages\":400,\"page\":1},\"links\":{\"self\":\"https://api.test.datacite.org/users?page%5Bnumber%5D=1&page%5Bsize%5D=25&provider-id=&query=&repository-id=&size=25&sort=\",\"next\":\"https://api.test.datacite.org/users?page%5Bnumber%5D=2&page%5Bsize%5D=25&query=&sort=\"}}"
          },
          "cookies": [],
          "headers": [
            {
              "name": "cache-control",
              "value": "max-age=0, private, must-revalidate"
            },
            {
              "name": "content-type",
              "value": "application/json; charset=utf-8"
            }
          ],
          "headersSize": 101,
          "httpVersion": "HTTP/1.1",
          "redirectURL": "",
          "status": 200,
          "statusText": "OK"
        },
        "startedDateTime": "2020-03-22T17:10:33.015Z",
        "time": 82,
        "timings": {
          "blocked": -1,
          "connect": -1,
          "dns": -1,
          "receive": 0,
          "send": 0,
          "ssl": -1,
          "wait": 82
        }
      },
      {
        "_id": "68bb570157b7b923848d2b45579d02f2",
        "_order": 0,
        "cache": {},
        "request": {
          "bodySize": 0,
          "cookies": [],
          "headers": [
            {
              "name": "accept",
              "value": "application/vnd.api+json"
            },
            {
              "name": "content-type",
              "value": "text/plain;charset=utf-8"
            }
          ],
          "headersSize": 146,
          "httpVersion": "HTTP/1.1",
          "method": "GET",
          "queryString": [],
          "url": "https://api.test.datacite.org/users/0000-0001-6528-2027"
        },
        "response": {
          "bodySize": 423,
          "content": {
            "mimeType": "application/json; charset=utf-8",
            "size": 423,
            "text": "{\"data\":{\"id\":\"0000-0001-6528-2027\",\"type\":\"users\",\"attributes\":{\"givenNames\":\"Martin\",\"familyName\":\"Fenner\",\"name\":\"Martin Fenner\",\"orcid\":\"https://orcid.org/0000-0001-6528-2027\",\"github\":null,\"roleId\":\"staff_admin\",\"isActive\":false,\"created\":\"2018-08-20T16:40:54.000Z\",\"updated\":\"2019-08-31T07:28:05.000Z\"},\"relationships\":{}},\"meta\":{\"dois\":[],\"published\":[],\"resourceTypes\":[],\"views\":[],\"downloads\":[],\"citations\":[]}}"
          },
          "cookies": [],
          "headers": [
            {
              "name": "cache-control",
              "value": "max-age=0, private, must-revalidate"
            },
            {
              "name": "content-type",
              "value": "application/json; charset=utf-8"
            }
          ],
          "headersSize": 101,
          "httpVersion": "HTTP/1.1",
          "redirectURL": "",
          "status": 200,
          "statusText": "OK"
        },
        "startedDateTime": "2020-03-22T17:10:33.108Z",
        "time": 118,
        "timings": {
          "blocked": -1,
          "connect": -1,
          "dns": -1,
          "receive": 0,
          "send": 0,
          "ssl": -1,
          "wait": 118
        }
      },
      {
        "_id": "ff8b13ed968f596ac396c057c663b4fe",
        "_order": 0,
        "cache": {},
        "request": {
          "bodySize": 0,
          "cookies": [],
          "headers": [
            {
              "name": "accept",
              "value": "application/vnd.api+json"
            },
            {
              "name": "content-type",
              "value": "text/plain;charset=utf-8"
            }
          ],
          "headersSize": 181,
          "httpVersion": "HTTP/1.1",
          "method": "GET",
          "queryString": [
            {
              "name": "user-id",
              "value": "0000-0001-6528-2027"
            },
            {
              "name": "user_id",
              "value": "0000-0001-6528-2027"
            }
          ],
          "url": "https://api.test.datacite.org/dois?user-id=0000-0001-6528-2027&user_id=0000-0001-6528-2027"
        },
        "response": {
          "bodySize": 164,
          "content": {
            "mimeType": "application/json; charset=utf-8",
            "size": 164,
            "text": "{\"data\":[],\"meta\":{\"total\":0,\"totalPages\":0,\"page\":1},\"links\":{\"self\":\"https://api.test.datacite.org/dois?user-id=0000-0001-6528-2027&user_id=0000-0001-6528-2027\"}}"
          },
          "cookies": [],
          "headers": [
            {
              "name": "cache-control",
              "value": "max-age=0, private, must-revalidate"
            },
            {
              "name": "content-type",
              "value": "application/json; charset=utf-8"
            }
          ],
          "headersSize": 101,
          "httpVersion": "HTTP/1.1",
          "redirectURL": "",
          "status": 200,
          "statusText": "OK"
        },
        "startedDateTime": "2020-03-22T17:10:33.108Z",
        "time": 121,
        "timings": {
          "blocked": -1,
          "connect": -1,
          "dns": -1,
          "receive": 0,
          "send": 0,
          "ssl": -1,
          "wait": 121
        }
      }
    ],
    "pages": [],
    "version": "1.2"
  }
}
