{
  "log": {
    "_recordingName": "Acceptance | staff_admin | provider/cancel assigning a prefix",
    "browser": {
      "name": "Chrome",
      "version": "81.0.4044.129"
    },
    "creator": {
      "comment": "persister:rest",
      "name": "Polly.JS",
      "version": "4.0.4"
    },
    "entries": [
      {
        "_id": "bf574916422732706e1cc1376c0cf458",
        "_order": 0,
        "cache": {},
        "request": {
          "bodySize": 0,
          "cookies": [],
          "headers": [
            {
              "name": "accept",
              "value": "application/vnd.api+json"
            },
            {
              "name": "content-type",
              "value": "text/plain;charset=utf-8"
            }
          ],
          "headersSize": 718,
          "httpVersion": "HTTP/1.1",
          "method": "GET",
          "queryString": [
            {
              "name": "include",
              "value": "consortium,consortium-organizations"
            }
          ],
          "url": "https://api.stage.datacite.org/providers/datacite?include=consortium%2Cconsortium-organizations"
        },
        "response": {
          "bodySize": 7128,
          "content": {
            "mimeType": "application/json; charset=utf-8",
            "size": 7128,
            "text": "{\"data\":{\"id\":\"datacite\",\"type\":\"providers\",\"attributes\":{\"name\":\"DataCite\",\"displayName\":\"DataCite\",\"symbol\":\"DATACITE\",\"website\":\"https://datacite.org\",\"systemEmail\":\"support@datacite.org\",\"groupEmail\":null,\"globusUuid\":null,\"description\":null,\"region\":\"EMEA\",\"country\":\"DE\",\"logoUrl\":null,\"memberType\":\"consortium_organization\",\"organizationType\":null,\"focusArea\":null,\"nonProfitStatus\":\"non-profit\",\"isActive\":true,\"hasPassword\":true,\"joined\":null,\"twitterHandle\":null,\"billingInformation\":{\"city\":\"\"},\"rorId\":\"https://ror.org/04wxnsj81\",\"salesforceId\":null,\"technicalContact\":{},\"secondaryTechnicalContact\":{},\"billingContact\":{},\"secondaryBillingContact\":{},\"serviceContact\":{},\"secondaryServiceContact\":{},\"votingContact\":{},\"created\":\"2011-12-07T13:41:07.000Z\",\"updated\":\"2020-05-20T15:05:22.000Z\"},\"relationships\":{\"clients\":{\"data\":[{\"id\":\"datacite.datacite\",\"type\":\"clients\"},{\"id\":\"datacite.pure\",\"type\":\"clients\"},{\"id\":\"datacite.rda\",\"type\":\"clients\"},{\"id\":\"datacite.harvard\",\"type\":\"clients\"},{\"id\":\"datacite.egi\",\"type\":\"clients\"},{\"id\":\"datacite.elsevier\",\"type\":\"clients\"},{\"id\":\"datacite.atmire\",\"type\":\"clients\"},{\"id\":\"datacite.cmcc\",\"type\":\"clients\"},{\"id\":\"datacite.axiom\",\"type\":\"clients\"},{\"id\":\"datacite.unibz\",\"type\":\"clients\"},{\"id\":\"datacite.edi\",\"type\":\"clients\"},{\"id\":\"datacite.nus\",\"type\":\"clients\"},{\"id\":\"datacite.test\",\"type\":\"clients\"},{\"id\":\"datacite.dataone\",\"type\":\"clients\"},{\"id\":\"datacite.ucb\",\"type\":\"clients\"},{\"id\":\"datacite.bl\",\"type\":\"clients\"},{\"id\":\"datacite.dce\",\"type\":\"clients\"},{\"id\":\"datacite.unavco\",\"type\":\"clients\"},{\"id\":\"datacite.sbgrid\",\"type\":\"clients\"},{\"id\":\"datacite.uva\",\"type\":\"clients\"},{\"id\":\"datacite.samson\",\"type\":\"clients\"},{\"id\":\"datacite.osu\",\"type\":\"clients\"},{\"id\":\"datacite.lcrnz\",\"type\":\"clients\"},{\"id\":\"datacite.nist\",\"type\":\"clients\"},{\"id\":\"datacite.ntu\",\"type\":\"clients\"},{\"id\":\"datacite.transfer\",\"type\":\"clients\"},{\"id\":\"datacite.esrf\",\"type\":\"clients\"},{\"id\":\"datacite.globus\",\"type\":\"clients\"},{\"id\":\"datacite.rph\",\"type\":\"clients\"},{\"id\":\"datacite.dcppc\",\"type\":\"clients\"},{\"id\":\"datacite.dctest\",\"type\":\"clients\"},{\"id\":\"datacite.roce\",\"type\":\"clients\"},{\"id\":\"datacite.sfl\",\"type\":\"clients\"},{\"id\":\"datacite.hbp\",\"type\":\"clients\"},{\"id\":\"datacite.kaust\",\"type\":\"clients\"},{\"id\":\"datacite.nasa\",\"type\":\"clients\"},{\"id\":\"datacite.vivli\",\"type\":\"clients\"},{\"id\":\"datacite.bri\",\"type\":\"clients\"},{\"id\":\"datacite.uoregon\",\"type\":\"clients\"},{\"id\":\"datacite.csc\",\"type\":\"clients\"},{\"id\":\"datacite.noaa\",\"type\":\"clients\"},{\"id\":\"datacite.vt\",\"type\":\"clients\"},{\"id\":\"datacite.uwyo\",\"type\":\"clients\"},{\"id\":\"datacite.ucdirl\",\"type\":\"clients\"},{\"id\":\"datacite.ornl\",\"type\":\"clients\"},{\"id\":\"datacite.wotr\",\"type\":\"clients\"},{\"id\":\"datacite.ghsl\",\"type\":\"clients\"},{\"id\":\"datacite.topmed\",\"type\":\"clients\"},{\"id\":\"datacite.argon\",\"type\":\"clients\"},{\"id\":\"datacite.nitrogen\",\"type\":\"clients\"},{\"id\":\"datacite.ddri\",\"type\":\"clients\"},{\"id\":\"datacite.testmary\",\"type\":\"clients\"},{\"id\":\"datacite.services\",\"type\":\"clients\"},{\"id\":\"datacite.mary\",\"type\":\"clients\"},{\"id\":\"datacite.drexel\",\"type\":\"clients\"},{\"id\":\"datacite.cifor\",\"type\":\"clients\"},{\"id\":\"datacite.sarla\",\"type\":\"clients\"},{\"id\":\"datacite.matt\",\"type\":\"clients\"},{\"id\":\"datacite.becker\",\"type\":\"clients\"},{\"id\":\"datacite.ljwrdm\",\"type\":\"clients\"},{\"id\":\"datacite.wygyke\",\"type\":\"clients\"},{\"id\":\"datacite.paul\",\"type\":\"clients\"}]},\"prefixes\":{\"data\":[{\"id\":\"10.5438\",\"type\":\"prefixes\"},{\"id\":\"10.0138\",\"type\":\"prefixes\"},{\"id\":\"10.15497\",\"type\":\"prefixes\"},{\"id\":\"10.0158\",\"type\":\"prefixes\"},{\"id\":\"10.0159\",\"type\":\"prefixes\"},{\"id\":\"10.24367\",\"type\":\"prefixes\"},{\"id\":\"10.24365\",\"type\":\"prefixes\"},{\"id\":\"10.24364\",\"type\":\"prefixes\"},{\"id\":\"10.24409\",\"type\":\"prefixes\"},{\"id\":\"10.24360\",\"type\":\"prefixes\"},{\"id\":\"10.24361\",\"type\":\"prefixes\"},{\"id\":\"10.24408\",\"type\":\"prefixes\"},{\"id\":\"10.24362\",\"type\":\"prefixes\"},{\"id\":\"10.24407\",\"type\":\"prefixes\"},{\"id\":\"10.24363\",\"type\":\"prefixes\"},{\"id\":\"10.24354\",\"type\":\"prefixes\"},{\"id\":\"10.24356\",\"type\":\"prefixes\"},{\"id\":\"10.24355\",\"type\":\"prefixes\"},{\"id\":\"10.24357\",\"type\":\"prefixes\"},{\"id\":\"10.24359\",\"type\":\"prefixes\"},{\"id\":\"10.24411\",\"type\":\"prefixes\"},{\"id\":\"10.24410\",\"type\":\"prefixes\"},{\"id\":\"10.24415\",\"type\":\"prefixes\"},{\"id\":\"10.24414\",\"type\":\"prefixes\"},{\"id\":\"10.24413\",\"type\":\"prefixes\"},{\"id\":\"10.24412\",\"type\":\"prefixes\"},{\"id\":\"10.24419\",\"type\":\"prefixes\"},{\"id\":\"10.24418\",\"type\":\"prefixes\"},{\"id\":\"10.24417\",\"type\":\"prefixes\"},{\"id\":\"10.24416\",\"type\":\"prefixes\"},{\"id\":\"10.24420\",\"type\":\"prefixes\"},{\"id\":\"10.24422\",\"type\":\"prefixes\"},{\"id\":\"10.24421\",\"type\":\"prefixes\"},{\"id\":\"10.24427\",\"type\":\"prefixes\"},{\"id\":\"10.0310\",\"type\":\"prefixes\"},{\"id\":\"10.0311\",\"type\":\"prefixes\"},{\"id\":\"10.0312\",\"type\":\"prefixes\"},{\"id\":\"10.0307\",\"type\":\"prefixes\"},{\"id\":\"10.0308\",\"type\":\"prefixes\"},{\"id\":\"10.0309\",\"type\":\"prefixes\"},{\"id\":\"10.0320\",\"type\":\"prefixes\"},{\"id\":\"10.0321\",\"type\":\"prefixes\"},{\"id\":\"10.0322\",\"type\":\"prefixes\"},{\"id\":\"10.70002\",\"type\":\"prefixes\"},{\"id\":\"10.70001\",\"type\":\"prefixes\"},{\"id\":\"10.70048\",\"type\":\"prefixes\"},{\"id\":\"10.33575\",\"type\":\"prefixes\"},{\"id\":\"10.33576\",\"type\":\"prefixes\"},{\"id\":\"10.70126\",\"type\":\"prefixes\"},{\"id\":\"10.7968\",\"type\":\"prefixes\"},{\"id\":\"10.80067\",\"type\":\"prefixes\"},{\"id\":\"10.80220\",\"type\":\"prefixes\"}]},\"consortium\":{\"data\":{\"id\":\"dc\",\"type\":\"providers\"}}}},\"meta\":{\"repositoryCount\":62,\"consortiumOrganizationCount\":0},\"included\":[{\"id\":\"dc\",\"type\":\"providers\",\"attributes\":{\"name\":\"DataCite Consortium\",\"displayName\":\"DataCite Consortium\",\"symbol\":\"DC\",\"website\":\"https://datacite.org\",\"systemEmail\":\"info@datacite.org\",\"groupEmail\":\"info@datacite.org\",\"globusUuid\":null,\"description\":null,\"region\":\"EMEA\",\"country\":\"DE\",\"logoUrl\":null,\"memberType\":\"consortium\",\"organizationType\":\"serviceProvider\",\"focusArea\":\"general\",\"nonProfitStatus\":\"non-profit\",\"isActive\":true,\"hasPassword\":true,\"joined\":null,\"twitterHandle\":\"@datacite416\",\"billingInformation\":{\"city\":\"\"},\"rorId\":\"https://ror.org/04wxnsj81\",\"salesforceId\":null,\"technicalContact\":{},\"secondaryTechnicalContact\":{},\"billingContact\":{},\"secondaryBillingContact\":{},\"serviceContact\":{\"email\":\"info@datacite.org\"},\"secondaryServiceContact\":{},\"votingContact\":{\"email\":\"info@datacite.org\",\"givenName\":\"John\",\"familyName\":\"Doe\"},\"created\":\"2019-08-06T07:04:35.000Z\",\"updated\":\"2020-05-25T17:16:49.000Z\"},\"relationships\":{\"clients\":{\"data\":[]},\"prefixes\":{\"data\":[]},\"consortiumOrganizations\":{\"data\":[{\"id\":\"demo\",\"type\":\"providers\"},{\"id\":\"datacite\",\"type\":\"providers\"},{\"id\":\"sml\",\"type\":\"providers\"},{\"id\":\"bibtag\",\"type\":\"providers\"},{\"id\":\"workshop\",\"type\":\"providers\"},{\"id\":\"bka\",\"type\":\"providers\"},{\"id\":\"testmary\",\"type\":\"providers\"},{\"id\":\"rphco\",\"type\":\"providers\"},{\"id\":\"testaa\",\"type\":\"providers\"},{\"id\":\"marytest\",\"type\":\"providers\"},{\"id\":\"abcde\",\"type\":\"providers\"},{\"id\":\"uuaa\",\"type\":\"providers\"},{\"id\":\"uuuu\",\"type\":\"providers\"},{\"id\":\"ydtr\",\"type\":\"providers\"},{\"id\":\"vpmj\",\"type\":\"providers\"},{\"id\":\"clyy\",\"type\":\"providers\"},{\"id\":\"mgxi\",\"type\":\"providers\"},{\"id\":\"epow\",\"type\":\"providers\"},{\"id\":\"cnsrtrg\",\"type\":\"providers\"},{\"id\":\"moia\",\"type\":\"providers\"},{\"id\":\"xwpb\",\"type\":\"providers\"}]}}}]}"
          },
          "cookies": [],
          "headers": [
            {
              "name": "cache-control",
              "value": "max-age=0, private, must-revalidate"
            },
            {
              "name": "content-type",
              "value": "application/json; charset=utf-8"
            }
          ],
          "headersSize": 101,
          "httpVersion": "HTTP/1.1",
          "redirectURL": "",
          "status": 200,
          "statusText": "OK"
        },
        "startedDateTime": "2020-05-25T17:17:03.331Z",
        "time": 112,
        "timings": {
          "blocked": -1,
          "connect": -1,
          "dns": -1,
          "receive": 0,
          "send": 0,
          "ssl": -1,
          "wait": 112
        }
      },
      {
        "_id": "6048e903309301240843c8a903987fe0",
        "_order": 0,
        "cache": {},
        "request": {
          "bodySize": 0,
          "cookies": [],
          "headers": [
            {
              "name": "accept",
              "value": "application/vnd.api+json"
            },
            {
              "name": "content-type",
              "value": "text/plain;charset=utf-8"
            }
          ],
          "headersSize": 714,
          "httpVersion": "HTTP/1.1",
          "method": "GET",
          "queryString": [
            {
              "name": "page",
              "value": {
                "size": "10"
              }
            },
            {
              "name": "query",
              "value": ""
            },
            {
              "name": "sort",
              "value": "name"
            },
            {
              "name": "state",
              "value": "unassigned"
            }
          ],
          "url": "https://api.stage.datacite.org/prefixes?page%5Bsize%5D=10&query=&sort=name&state=unassigned"
        },
        "response": {
          "bodySize": 2749,
          "content": {
            "mimeType": "application/json; charset=utf-8",
            "size": 2749,
            "text": "{\"data\":[{\"id\":\"10.80433\",\"type\":\"prefixes\",\"attributes\":{\"prefix\":\"10.80433\",\"createdAt\":\"2019-07-03T14:01:32.000Z\"},\"relationships\":{\"clients\":{\"data\":[]},\"providers\":{\"data\":[]},\"clientPrefixes\":{\"data\":[]},\"providerPrefixes\":{\"data\":[]}}},{\"id\":\"10.80434\",\"type\":\"prefixes\",\"attributes\":{\"prefix\":\"10.80434\",\"createdAt\":\"2019-07-03T14:01:32.000Z\"},\"relationships\":{\"clients\":{\"data\":[]},\"providers\":{\"data\":[]},\"clientPrefixes\":{\"data\":[]},\"providerPrefixes\":{\"data\":[]}}},{\"id\":\"10.80435\",\"type\":\"prefixes\",\"attributes\":{\"prefix\":\"10.80435\",\"createdAt\":\"2019-07-03T14:01:33.000Z\"},\"relationships\":{\"clients\":{\"data\":[]},\"providers\":{\"data\":[]},\"clientPrefixes\":{\"data\":[]},\"providerPrefixes\":{\"data\":[]}}},{\"id\":\"10.80436\",\"type\":\"prefixes\",\"attributes\":{\"prefix\":\"10.80436\",\"createdAt\":\"2019-07-03T14:01:32.000Z\"},\"relationships\":{\"clients\":{\"data\":[]},\"providers\":{\"data\":[]},\"clientPrefixes\":{\"data\":[]},\"providerPrefixes\":{\"data\":[]}}},{\"id\":\"10.80437\",\"type\":\"prefixes\",\"attributes\":{\"prefix\":\"10.80437\",\"createdAt\":\"2019-07-03T14:01:32.000Z\"},\"relationships\":{\"clients\":{\"data\":[]},\"providers\":{\"data\":[]},\"clientPrefixes\":{\"data\":[]},\"providerPrefixes\":{\"data\":[]}}},{\"id\":\"10.80438\",\"type\":\"prefixes\",\"attributes\":{\"prefix\":\"10.80438\",\"createdAt\":\"2019-07-03T14:01:32.000Z\"},\"relationships\":{\"clients\":{\"data\":[]},\"providers\":{\"data\":[]},\"clientPrefixes\":{\"data\":[]},\"providerPrefixes\":{\"data\":[]}}},{\"id\":\"10.80439\",\"type\":\"prefixes\",\"attributes\":{\"prefix\":\"10.80439\",\"createdAt\":\"2019-07-03T14:01:33.000Z\"},\"relationships\":{\"clients\":{\"data\":[]},\"providers\":{\"data\":[]},\"clientPrefixes\":{\"data\":[]},\"providerPrefixes\":{\"data\":[]}}},{\"id\":\"10.80441\",\"type\":\"prefixes\",\"attributes\":{\"prefix\":\"10.80441\",\"createdAt\":\"2019-07-03T14:01:33.000Z\"},\"relationships\":{\"clients\":{\"data\":[]},\"providers\":{\"data\":[]},\"clientPrefixes\":{\"data\":[]},\"providerPrefixes\":{\"data\":[]}}},{\"id\":\"10.80442\",\"type\":\"prefixes\",\"attributes\":{\"prefix\":\"10.80442\",\"createdAt\":\"2019-07-03T14:01:33.000Z\"},\"relationships\":{\"clients\":{\"data\":[]},\"providers\":{\"data\":[]},\"clientPrefixes\":{\"data\":[]},\"providerPrefixes\":{\"data\":[]}}},{\"id\":\"10.80443\",\"type\":\"prefixes\",\"attributes\":{\"prefix\":\"10.80443\",\"createdAt\":\"2019-07-03T14:01:32.000Z\"},\"relationships\":{\"clients\":{\"data\":[]},\"providers\":{\"data\":[]},\"clientPrefixes\":{\"data\":[]},\"providerPrefixes\":{\"data\":[]}}}],\"meta\":{\"total\":67,\"totalPages\":7,\"page\":1,\"years\":[{\"id\":\"2019\",\"title\":\"2019\",\"count\":67}],\"states\":[{\"id\":\"unassigned\",\"title\":\"Unassigned\",\"count\":67}],\"providers\":[],\"clients\":[]},\"links\":{\"self\":\"https://api.stage.datacite.org/prefixes?page%5Bsize%5D=10&query=&sort=name&state=unassigned\",\"next\":\"https://api.stage.datacite.org/prefixes?page%5Bnumber%5D=2&page%5Bsize%5D=10&query=&sort=name\"}}"
          },
          "cookies": [],
          "headers": [
            {
              "name": "cache-control",
              "value": "max-age=0, private, must-revalidate"
            },
            {
              "name": "content-type",
              "value": "application/json; charset=utf-8"
            }
          ],
          "headersSize": 101,
          "httpVersion": "HTTP/1.1",
          "redirectURL": "",
          "status": 200,
          "statusText": "OK"
        },
        "startedDateTime": "2020-05-25T17:17:03.523Z",
        "time": 81,
        "timings": {
          "blocked": -1,
          "connect": -1,
          "dns": -1,
          "receive": 0,
          "send": 0,
          "ssl": -1,
          "wait": 81
        }
      },
      {
        "_id": "9f115e87eb7d2d5ca684f21b06a9dd4b",
        "_order": 0,
        "cache": {},
        "request": {
          "bodySize": 0,
          "cookies": [],
          "headers": [
            {
              "name": "accept",
              "value": "application/vnd.api+json"
            },
            {
              "name": "content-type",
              "value": "text/plain;charset=utf-8"
            }
          ],
          "headersSize": 672,
          "httpVersion": "HTTP/1.1",
          "method": "GET",
          "queryString": [],
          "url": "https://api.stage.datacite.org/providers/datacite"
        },
        "response": {
          "bodySize": 5370,
          "content": {
            "mimeType": "application/json; charset=utf-8",
            "size": 5370,
            "text": "{\"data\":{\"id\":\"datacite\",\"type\":\"providers\",\"attributes\":{\"name\":\"DataCite\",\"displayName\":\"DataCite\",\"symbol\":\"DATACITE\",\"website\":\"https://datacite.org\",\"systemEmail\":\"support@datacite.org\",\"groupEmail\":null,\"globusUuid\":null,\"description\":null,\"region\":\"EMEA\",\"country\":\"DE\",\"logoUrl\":null,\"memberType\":\"consortium_organization\",\"organizationType\":null,\"focusArea\":null,\"nonProfitStatus\":\"non-profit\",\"isActive\":true,\"hasPassword\":true,\"joined\":null,\"twitterHandle\":null,\"billingInformation\":{\"city\":\"\"},\"rorId\":\"https://ror.org/04wxnsj81\",\"salesforceId\":null,\"technicalContact\":{},\"secondaryTechnicalContact\":{},\"billingContact\":{},\"secondaryBillingContact\":{},\"serviceContact\":{},\"secondaryServiceContact\":{},\"votingContact\":{},\"created\":\"2011-12-07T13:41:07.000Z\",\"updated\":\"2020-05-20T15:05:22.000Z\"},\"relationships\":{\"clients\":{\"data\":[{\"id\":\"datacite.datacite\",\"type\":\"clients\"},{\"id\":\"datacite.pure\",\"type\":\"clients\"},{\"id\":\"datacite.rda\",\"type\":\"clients\"},{\"id\":\"datacite.harvard\",\"type\":\"clients\"},{\"id\":\"datacite.egi\",\"type\":\"clients\"},{\"id\":\"datacite.elsevier\",\"type\":\"clients\"},{\"id\":\"datacite.atmire\",\"type\":\"clients\"},{\"id\":\"datacite.cmcc\",\"type\":\"clients\"},{\"id\":\"datacite.axiom\",\"type\":\"clients\"},{\"id\":\"datacite.unibz\",\"type\":\"clients\"},{\"id\":\"datacite.edi\",\"type\":\"clients\"},{\"id\":\"datacite.nus\",\"type\":\"clients\"},{\"id\":\"datacite.test\",\"type\":\"clients\"},{\"id\":\"datacite.dataone\",\"type\":\"clients\"},{\"id\":\"datacite.ucb\",\"type\":\"clients\"},{\"id\":\"datacite.bl\",\"type\":\"clients\"},{\"id\":\"datacite.dce\",\"type\":\"clients\"},{\"id\":\"datacite.unavco\",\"type\":\"clients\"},{\"id\":\"datacite.sbgrid\",\"type\":\"clients\"},{\"id\":\"datacite.uva\",\"type\":\"clients\"},{\"id\":\"datacite.samson\",\"type\":\"clients\"},{\"id\":\"datacite.osu\",\"type\":\"clients\"},{\"id\":\"datacite.lcrnz\",\"type\":\"clients\"},{\"id\":\"datacite.nist\",\"type\":\"clients\"},{\"id\":\"datacite.ntu\",\"type\":\"clients\"},{\"id\":\"datacite.transfer\",\"type\":\"clients\"},{\"id\":\"datacite.esrf\",\"type\":\"clients\"},{\"id\":\"datacite.globus\",\"type\":\"clients\"},{\"id\":\"datacite.rph\",\"type\":\"clients\"},{\"id\":\"datacite.dcppc\",\"type\":\"clients\"},{\"id\":\"datacite.dctest\",\"type\":\"clients\"},{\"id\":\"datacite.roce\",\"type\":\"clients\"},{\"id\":\"datacite.sfl\",\"type\":\"clients\"},{\"id\":\"datacite.hbp\",\"type\":\"clients\"},{\"id\":\"datacite.kaust\",\"type\":\"clients\"},{\"id\":\"datacite.nasa\",\"type\":\"clients\"},{\"id\":\"datacite.vivli\",\"type\":\"clients\"},{\"id\":\"datacite.bri\",\"type\":\"clients\"},{\"id\":\"datacite.uoregon\",\"type\":\"clients\"},{\"id\":\"datacite.csc\",\"type\":\"clients\"},{\"id\":\"datacite.noaa\",\"type\":\"clients\"},{\"id\":\"datacite.vt\",\"type\":\"clients\"},{\"id\":\"datacite.uwyo\",\"type\":\"clients\"},{\"id\":\"datacite.ucdirl\",\"type\":\"clients\"},{\"id\":\"datacite.ornl\",\"type\":\"clients\"},{\"id\":\"datacite.wotr\",\"type\":\"clients\"},{\"id\":\"datacite.ghsl\",\"type\":\"clients\"},{\"id\":\"datacite.topmed\",\"type\":\"clients\"},{\"id\":\"datacite.argon\",\"type\":\"clients\"},{\"id\":\"datacite.nitrogen\",\"type\":\"clients\"},{\"id\":\"datacite.ddri\",\"type\":\"clients\"},{\"id\":\"datacite.testmary\",\"type\":\"clients\"},{\"id\":\"datacite.services\",\"type\":\"clients\"},{\"id\":\"datacite.mary\",\"type\":\"clients\"},{\"id\":\"datacite.drexel\",\"type\":\"clients\"},{\"id\":\"datacite.cifor\",\"type\":\"clients\"},{\"id\":\"datacite.sarla\",\"type\":\"clients\"},{\"id\":\"datacite.matt\",\"type\":\"clients\"},{\"id\":\"datacite.becker\",\"type\":\"clients\"},{\"id\":\"datacite.ljwrdm\",\"type\":\"clients\"},{\"id\":\"datacite.wygyke\",\"type\":\"clients\"},{\"id\":\"datacite.paul\",\"type\":\"clients\"}]},\"prefixes\":{\"data\":[{\"id\":\"10.5438\",\"type\":\"prefixes\"},{\"id\":\"10.0138\",\"type\":\"prefixes\"},{\"id\":\"10.15497\",\"type\":\"prefixes\"},{\"id\":\"10.0158\",\"type\":\"prefixes\"},{\"id\":\"10.0159\",\"type\":\"prefixes\"},{\"id\":\"10.24367\",\"type\":\"prefixes\"},{\"id\":\"10.24365\",\"type\":\"prefixes\"},{\"id\":\"10.24364\",\"type\":\"prefixes\"},{\"id\":\"10.24409\",\"type\":\"prefixes\"},{\"id\":\"10.24360\",\"type\":\"prefixes\"},{\"id\":\"10.24361\",\"type\":\"prefixes\"},{\"id\":\"10.24408\",\"type\":\"prefixes\"},{\"id\":\"10.24362\",\"type\":\"prefixes\"},{\"id\":\"10.24407\",\"type\":\"prefixes\"},{\"id\":\"10.24363\",\"type\":\"prefixes\"},{\"id\":\"10.24354\",\"type\":\"prefixes\"},{\"id\":\"10.24356\",\"type\":\"prefixes\"},{\"id\":\"10.24355\",\"type\":\"prefixes\"},{\"id\":\"10.24357\",\"type\":\"prefixes\"},{\"id\":\"10.24359\",\"type\":\"prefixes\"},{\"id\":\"10.24411\",\"type\":\"prefixes\"},{\"id\":\"10.24410\",\"type\":\"prefixes\"},{\"id\":\"10.24415\",\"type\":\"prefixes\"},{\"id\":\"10.24414\",\"type\":\"prefixes\"},{\"id\":\"10.24413\",\"type\":\"prefixes\"},{\"id\":\"10.24412\",\"type\":\"prefixes\"},{\"id\":\"10.24419\",\"type\":\"prefixes\"},{\"id\":\"10.24418\",\"type\":\"prefixes\"},{\"id\":\"10.24417\",\"type\":\"prefixes\"},{\"id\":\"10.24416\",\"type\":\"prefixes\"},{\"id\":\"10.24420\",\"type\":\"prefixes\"},{\"id\":\"10.24422\",\"type\":\"prefixes\"},{\"id\":\"10.24421\",\"type\":\"prefixes\"},{\"id\":\"10.24427\",\"type\":\"prefixes\"},{\"id\":\"10.0310\",\"type\":\"prefixes\"},{\"id\":\"10.0311\",\"type\":\"prefixes\"},{\"id\":\"10.0312\",\"type\":\"prefixes\"},{\"id\":\"10.0307\",\"type\":\"prefixes\"},{\"id\":\"10.0308\",\"type\":\"prefixes\"},{\"id\":\"10.0309\",\"type\":\"prefixes\"},{\"id\":\"10.0320\",\"type\":\"prefixes\"},{\"id\":\"10.0321\",\"type\":\"prefixes\"},{\"id\":\"10.0322\",\"type\":\"prefixes\"},{\"id\":\"10.70002\",\"type\":\"prefixes\"},{\"id\":\"10.70001\",\"type\":\"prefixes\"},{\"id\":\"10.70048\",\"type\":\"prefixes\"},{\"id\":\"10.33575\",\"type\":\"prefixes\"},{\"id\":\"10.33576\",\"type\":\"prefixes\"},{\"id\":\"10.70126\",\"type\":\"prefixes\"},{\"id\":\"10.7968\",\"type\":\"prefixes\"},{\"id\":\"10.80067\",\"type\":\"prefixes\"},{\"id\":\"10.80220\",\"type\":\"prefixes\"}]},\"consortium\":{\"data\":{\"id\":\"dc\",\"type\":\"providers\"}}}},\"meta\":{\"repositoryCount\":62,\"consortiumOrganizationCount\":0}}"
          },
          "cookies": [],
          "headers": [
            {
              "name": "cache-control",
              "value": "max-age=0, private, must-revalidate"
            },
            {
              "name": "content-type",
              "value": "application/json; charset=utf-8"
            }
          ],
          "headersSize": 101,
          "httpVersion": "HTTP/1.1",
          "redirectURL": "",
          "status": 200,
          "statusText": "OK"
        },
        "startedDateTime": "2020-05-25T17:17:03.523Z",
        "time": 85,
        "timings": {
          "blocked": -1,
          "connect": -1,
          "dns": -1,
          "receive": 0,
          "send": 0,
          "ssl": -1,
          "wait": 85
        }
      }
    ],
    "pages": [],
    "version": "1.2"
  }
}
