{
  "log": {
    "_recordingName": "Acceptance | organization_admin | user/visiting users",
    "browser": {
      "name": "Chrome",
      "version": "81.0.4044.129"
    },
    "creator": {
      "comment": "persister:rest",
      "name": "Polly.JS",
      "version": "4.0.4"
    },
    "entries": [
      {
        "_id": "214b088a9c9fbb6a64516690740b0fd3",
        "_order": 0,
        "cache": {},
        "request": {
          "bodySize": 0,
          "cookies": [],
          "headers": [
            {
              "name": "accept",
              "value": "application/vnd.api+json"
            },
            {
              "name": "content-type",
              "value": "text/plain;charset=utf-8"
            }
          ],
          "headersSize": 791,
          "httpVersion": "HTTP/1.1",
          "method": "GET",
          "queryString": [
            {
              "name": "page",
              "value": {
                "number": "1",
                "size": "25"
              }
            },
            {
              "name": "provider-id",
              "value": ""
            },
            {
              "name": "query",
              "value": ""
            },
            {
              "name": "repository-id",
              "value": ""
            },
            {
              "name": "size",
              "value": "25"
            },
            {
              "name": "sort",
              "value": ""
            }
          ],
          "url": "https://api.stage.datacite.org/users?page%5Bnumber%5D=1&page%5Bsize%5D=25&provider-id=&query=&repository-id=&size=25&sort="
        },
        "response": {
          "bodySize": 8113,
          "content": {
            "mimeType": "application/json; charset=utf-8",
            "size": 8113,
            "text": "{\"data\":[{\"id\":\"0000-0001-9354-2586\",\"type\":\"users\",\"attributes\":{\"givenName\":\"Dongmei\",\"familyName\":\" Deng\",\"name\":\"Dongmei  Deng\",\"orcid\":\"https://orcid.org/0000-0001-9354-2586\",\"github\":null,\"roleId\":\"user\",\"isActive\":false,\"created\":\"2020-02-09T17:40:00.000Z\",\"updated\":\"2020-02-09T17:40:00.000Z\"},\"relationships\":{}},{\"id\":\"0000-0002-0045-3769\",\"type\":\"users\",\"attributes\":{\"givenName\":\"Bernard\",\"familyName\":\"'t Hart\",\"name\":\"Bernard Marius 't Hart\",\"orcid\":\"https://orcid.org/0000-0002-0045-3769\",\"github\":null,\"roleId\":\"user\",\"isActive\":false,\"created\":\"2020-02-09T17:38:11.000Z\",\"updated\":\"2020-02-09T17:38:11.000Z\"},\"relationships\":{}},{\"id\":\"0000-0002-2220-6072\",\"type\":\"users\",\"attributes\":{\"givenName\":\"Michael\",\"familyName\":\"'t Sas-Rolfes\",\"name\":\"Michael 't Sas-Rolfes\",\"orcid\":\"https://orcid.org/0000-0002-2220-6072\",\"github\":null,\"roleId\":\"user\",\"isActive\":false,\"created\":\"2017-12-15T16:50:05.000Z\",\"updated\":\"2017-12-15T16:50:05.000Z\"},\"relationships\":{}},{\"id\":\"0000-0002-3994-9702\",\"type\":\"users\",\"attributes\":{\"givenName\":\"Mufidah\",\"familyName\":\"-\",\"name\":\"Mufidah -\",\"orcid\":\"https://orcid.org/0000-0002-3994-9702\",\"github\":null,\"roleId\":\"user\",\"isActive\":false,\"created\":\"2020-07-28T09:23:14.000Z\",\"updated\":\"2020-07-28T09:23:14.000Z\"},\"relationships\":{}},{\"id\":\"0000-0003-1564-2260\",\"type\":\"users\",\"attributes\":{\"givenName\":\"Ramadiani\",\"familyName\":\".\",\"name\":\"Ramadiani .\",\"orcid\":\"https://orcid.org/0000-0003-1564-2260\",\"github\":null,\"roleId\":\"user\",\"isActive\":false,\"created\":\"2018-04-01T11:06:30.000Z\",\"updated\":\"2018-04-01T18:22:06.000Z\"},\"relationships\":{}},{\"id\":\"0000-0002-6694-1650\",\"type\":\"users\",\"attributes\":{\"givenName\":\"A.F.M. Sajidul Qadir\",\"familyName\":\".\",\"name\":\"A.F.M. Sajidul Qadir .\",\"orcid\":\"https://orcid.org/0000-0002-6694-1650\",\"github\":null,\"roleId\":\"user\",\"isActive\":false,\"created\":\"2017-12-24T08:23:11.000Z\",\"updated\":\"2017-12-24T08:23:11.000Z\"},\"relationships\":{}},{\"id\":\"0000-0002-9345-1841\",\"type\":\"users\",\"attributes\":{\"givenName\":\"52676\",\"familyName\":\"52676\",\"name\":\"52676 52676\",\"orcid\":\"https://orcid.org/0000-0002-9345-1841\",\"github\":null,\"roleId\":\"user\",\"isActive\":false,\"created\":\"2020-07-28T09:06:15.000Z\",\"updated\":\"2020-07-28T09:06:15.000Z\"},\"relationships\":{}},{\"id\":\"0000-0002-6097-6115\",\"type\":\"users\",\"attributes\":{\"givenName\":\"?\",\"familyName\":\"?\",\"name\":\"? ?\",\"orcid\":\"https://orcid.org/0000-0002-6097-6115\",\"github\":null,\"roleId\":\"user\",\"isActive\":false,\"created\":\"2019-12-06T20:40:58.000Z\",\"updated\":\"2019-12-06T20:40:59.000Z\"},\"relationships\":{}},{\"id\":\"0000-0002-5044-5046\",\"type\":\"users\",\"attributes\":{\"givenName\":\"??\",\"familyName\":\"?\",\"name\":\"?? ?\",\"orcid\":\"https://orcid.org/0000-0002-5044-5046\",\"github\":null,\"roleId\":\"user\",\"isActive\":false,\"created\":\"2020-07-28T08:59:00.000Z\",\"updated\":\"2020-07-28T08:59:00.000Z\"},\"relationships\":{}},{\"id\":\"0000-0002-7218-0659\",\"type\":\"users\",\"attributes\":{\"givenName\":\"??\",\"familyName\":\"?\",\"name\":\"?? ?\",\"orcid\":\"https://orcid.org/0000-0002-7218-0659\",\"github\":null,\"roleId\":\"user\",\"isActive\":false,\"created\":\"2020-07-29T15:24:43.000Z\",\"updated\":\"2020-07-29T15:24:43.000Z\"},\"relationships\":{}},{\"id\":\"0000-0002-6815-2006\",\"type\":\"users\",\"attributes\":{\"givenName\":\"??\",\"familyName\":\"?\",\"name\":\"?? ?\",\"orcid\":\"https://orcid.org/0000-0002-6815-2006\",\"github\":null,\"roleId\":\"user\",\"isActive\":false,\"created\":\"2020-07-29T15:23:02.000Z\",\"updated\":\"2020-07-29T15:23:02.000Z\"},\"relationships\":{}},{\"id\":\"0000-0001-8019-9336\",\"type\":\"users\",\"attributes\":{\"givenName\":\"??\",\"familyName\":\"?\",\"name\":\"?? ?\",\"orcid\":\"https://orcid.org/0000-0001-8019-9336\",\"github\":null,\"roleId\":\"user\",\"isActive\":false,\"created\":\"2020-07-29T15:27:09.000Z\",\"updated\":\"2020-07-29T15:27:09.000Z\"},\"relationships\":{}},{\"id\":\"0000-0003-2677-0364\",\"type\":\"users\",\"attributes\":{\"givenName\":\"Sebastian\",\"familyName\":\"```Trojanowski\",\"name\":\"Sebastian ```Trojanowski\",\"orcid\":\"https://orcid.org/0000-0003-2677-0364\",\"github\":null,\"roleId\":\"user\",\"isActive\":false,\"created\":\"2020-07-28T09:11:26.000Z\",\"updated\":\"2020-07-28T09:11:26.000Z\"},\"relationships\":{}},{\"id\":\"0000-0001-6116-594X\",\"type\":\"users\",\"attributes\":{\"givenName\":\"Senthil Kumar\",\"familyName\":\"A\",\"name\":\"Senthil Kumar A\",\"orcid\":\"https://orcid.org/0000-0001-6116-594X\",\"github\":null,\"roleId\":\"user\",\"isActive\":false,\"created\":\"2015-11-17T11:57:10.000Z\",\"updated\":\"2015-11-17T11:57:10.000Z\"},\"relationships\":{}},{\"id\":\"0000-0002-2611-5178\",\"type\":\"users\",\"attributes\":{\"givenName\":\"Andrew Roobert\",\"familyName\":\"A\",\"name\":\"Andrew Roobert A\",\"orcid\":\"https://orcid.org/0000-0002-2611-5178\",\"github\":null,\"roleId\":\"user\",\"isActive\":false,\"created\":\"2018-01-16T18:34:37.000Z\",\"updated\":\"2018-01-16T18:34:37.000Z\"},\"relationships\":{}},{\"id\":\"0000-0002-6909-1823\",\"type\":\"users\",\"attributes\":{\"givenName\":\"Ramesh\",\"familyName\":\"A\",\"name\":\"Ramesh A\",\"orcid\":\"https://orcid.org/0000-0002-6909-1823\",\"github\":null,\"roleId\":\"user\",\"isActive\":false,\"created\":\"2015-12-01T11:08:45.000Z\",\"updated\":\"2017-11-13T15:59:45.000Z\"},\"relationships\":{}},{\"id\":\"0000-0001-5075-6365\",\"type\":\"users\",\"attributes\":{\"givenName\":\"Sivakami\",\"familyName\":\"A\",\"name\":\"Sivakami A\",\"orcid\":\"https://orcid.org/0000-0001-5075-6365\",\"github\":null,\"roleId\":\"user\",\"isActive\":false,\"created\":\"2020-07-29T14:56:22.000Z\",\"updated\":\"2020-07-29T14:56:22.000Z\"},\"relationships\":{}},{\"id\":\"0000-0001-8778-9902\",\"type\":\"users\",\"attributes\":{\"givenName\":\"Ebinesh\",\"familyName\":\"A\",\"name\":\"Ebinesh A.\",\"orcid\":\"https://orcid.org/0000-0001-8778-9902\",\"github\":null,\"roleId\":\"user\",\"isActive\":false,\"created\":\"2016-04-27T05:32:24.000Z\",\"updated\":\"2016-04-27T05:32:24.000Z\"},\"relationships\":{}},{\"id\":\"0000-0001-8707-9927\",\"type\":\"users\",\"attributes\":{\"givenName\":\"Sheik Abdullah\",\"familyName\":\"A\",\"name\":\"Sheik Abdullah A\",\"orcid\":\"https://orcid.org/0000-0001-8707-9927\",\"github\":null,\"roleId\":\"user\",\"isActive\":false,\"created\":\"2017-10-20T09:19:56.000Z\",\"updated\":\"2017-10-20T09:19:56.000Z\"},\"relationships\":{}},{\"id\":\"0000-0003-0357-8572\",\"type\":\"users\",\"attributes\":{\"givenName\":\"Aadhityan\",\"familyName\":\"A\",\"name\":\"Aadhityan A\",\"orcid\":\"https://orcid.org/0000-0003-0357-8572\",\"github\":null,\"roleId\":\"user\",\"isActive\":false,\"created\":\"2016-03-13T11:56:36.000Z\",\"updated\":\"2016-03-13T11:56:36.000Z\"},\"relationships\":{}},{\"id\":\"0000-0003-3722-7084\",\"type\":\"users\",\"attributes\":{\"givenName\":\"Hélde\",\"familyName\":\"A Domingos\",\"name\":\"Hélde A. Domingos\",\"orcid\":\"https://orcid.org/0000-0003-3722-7084\",\"github\":null,\"roleId\":\"user\",\"isActive\":false,\"created\":\"2017-06-20T21:27:00.000Z\",\"updated\":\"2017-06-20T21:28:02.000Z\"},\"relationships\":{}},{\"id\":\"0000-0003-3173-8852\",\"type\":\"users\",\"attributes\":{\"givenName\":\"muna\",\"familyName\":\"A M Elnemr\",\"name\":\"muna A M Elnemr\",\"orcid\":\"https://orcid.org/0000-0003-3173-8852\",\"github\":null,\"roleId\":\"user\",\"isActive\":false,\"created\":\"2018-01-24T11:32:21.000Z\",\"updated\":\"2018-01-24T11:36:09.000Z\"},\"relationships\":{}},{\"id\":\"0000-0002-0320-360X\",\"type\":\"users\",\"attributes\":{\"givenName\":\"Dr Abba\",\"familyName\":\"A. Abba\",\"name\":\"Dr Abba A. Abba\",\"orcid\":\"https://orcid.org/0000-0002-0320-360X\",\"github\":null,\"roleId\":\"user\",\"isActive\":false,\"created\":\"2018-05-11T18:19:20.000Z\",\"updated\":\"2018-05-11T18:19:20.000Z\"},\"relationships\":{}},{\"id\":\"0000-0003-3406-0485\",\"type\":\"users\",\"attributes\":{\"givenName\":\"Tahani\",\"familyName\":\"A. C. A. Bayrakdar\",\"name\":\"Tahani A. C. A. Bayrakdar\",\"orcid\":\"https://orcid.org/0000-0003-3406-0485\",\"github\":null,\"roleId\":\"user\",\"isActive\":false,\"created\":\"2020-07-28T09:16:53.000Z\",\"updated\":\"2020-07-28T09:16:53.000Z\"},\"relationships\":{}},{\"id\":\"0000-0002-4166-4263\",\"type\":\"users\",\"attributes\":{\"givenName\":\"Sreejith\",\"familyName\":\"A. G.\",\"name\":\"Sreejith A. G.\",\"orcid\":\"https://orcid.org/0000-0002-4166-4263\",\"github\":null,\"roleId\":\"user\",\"isActive\":false,\"created\":\"2016-11-01T04:46:18.000Z\",\"updated\":\"2016-11-01T04:46:18.000Z\"},\"relationships\":{}}],\"meta\":{\"total\":99115,\"totalPages\":400,\"page\":1},\"links\":{\"self\":\"https://api.stage.datacite.org/users?page%5Bnumber%5D=1&page%5Bsize%5D=25&provider-id=&query=&repository-id=&size=25&sort=\",\"next\":\"https://api.stage.datacite.org/users?page%5Bnumber%5D=2&page%5Bsize%5D=25&query=&sort=\"}}"
          },
          "cookies": [],
          "headers": [
            {
              "name": "cache-control",
              "value": "max-age=0, private, must-revalidate"
            },
            {
              "name": "content-type",
              "value": "application/json; charset=utf-8"
            }
          ],
          "headersSize": 101,
          "httpVersion": "HTTP/1.1",
          "redirectURL": "",
          "status": 200,
          "statusText": "OK"
        },
        "startedDateTime": "2020-10-02T08:40:53.214Z",
        "time": 227,
        "timings": {
          "blocked": -1,
          "connect": -1,
          "dns": -1,
          "receive": 0,
          "send": 0,
          "ssl": -1,
          "wait": 227
        }
      },
      {
        "_id": "bf574916422732706e1cc1376c0cf458",
        "_order": 0,
        "cache": {},
        "request": {
          "bodySize": 0,
          "cookies": [],
          "headers": [
            {
              "name": "accept",
              "value": "application/vnd.api+json"
            },
            {
              "name": "content-type",
              "value": "text/plain;charset=utf-8"
            }
          ],
          "headersSize": 764,
          "httpVersion": "HTTP/1.1",
          "method": "GET",
          "queryString": [
            {
              "name": "include",
              "value": "consortium,consortium-organizations"
            }
          ],
          "url": "https://api.stage.datacite.org/providers/datacite?include=consortium%2Cconsortium-organizations"
        },
        "response": {
          "bodySize": 6959,
          "content": {
            "mimeType": "application/json; charset=utf-8",
            "size": 6959,
            "text": "{\"data\":{\"id\":\"datacite\",\"type\":\"providers\",\"attributes\":{\"name\":\"DataCite\",\"displayName\":\"DataCite\",\"symbol\":\"DATACITE\",\"website\":\"https://datacite.org\",\"systemEmail\":\"support@datacite.org\",\"groupEmail\":null,\"globusUuid\":null,\"description\":null,\"region\":\"EMEA\",\"country\":\"DE\",\"logoUrl\":null,\"memberType\":\"consortium_organization\",\"organizationType\":null,\"focusArea\":null,\"nonProfitStatus\":\"non-profit\",\"isActive\":true,\"hasPassword\":true,\"joined\":null,\"twitterHandle\":null,\"billingInformation\":{\"city\":\"\"},\"rorId\":\"https://ror.org/04wxnsj81\",\"technicalContact\":{},\"secondaryTechnicalContact\":{},\"billingContact\":{},\"secondaryBillingContact\":{},\"serviceContact\":{},\"secondaryServiceContact\":{},\"votingContact\":{},\"created\":\"2011-12-07T13:41:07.000Z\",\"updated\":\"2020-05-20T15:05:22.000Z\"},\"relationships\":{\"clients\":{\"data\":[{\"id\":\"datacite.datacite\",\"type\":\"clients\"},{\"id\":\"datacite.pure\",\"type\":\"clients\"},{\"id\":\"datacite.rda\",\"type\":\"clients\"},{\"id\":\"datacite.harvard\",\"type\":\"clients\"},{\"id\":\"datacite.egi\",\"type\":\"clients\"},{\"id\":\"datacite.elsevier\",\"type\":\"clients\"},{\"id\":\"datacite.atmire\",\"type\":\"clients\"},{\"id\":\"datacite.cmcc\",\"type\":\"clients\"},{\"id\":\"datacite.axiom\",\"type\":\"clients\"},{\"id\":\"datacite.unibz\",\"type\":\"clients\"},{\"id\":\"datacite.edi\",\"type\":\"clients\"},{\"id\":\"datacite.nus\",\"type\":\"clients\"},{\"id\":\"datacite.test\",\"type\":\"clients\"},{\"id\":\"datacite.dataone\",\"type\":\"clients\"},{\"id\":\"datacite.ucb\",\"type\":\"clients\"},{\"id\":\"datacite.bl\",\"type\":\"clients\"},{\"id\":\"datacite.dce\",\"type\":\"clients\"},{\"id\":\"datacite.unavco\",\"type\":\"clients\"},{\"id\":\"datacite.sbgrid\",\"type\":\"clients\"},{\"id\":\"datacite.uva\",\"type\":\"clients\"},{\"id\":\"datacite.samson\",\"type\":\"clients\"},{\"id\":\"datacite.osu\",\"type\":\"clients\"},{\"id\":\"datacite.lcrnz\",\"type\":\"clients\"},{\"id\":\"datacite.nist\",\"type\":\"clients\"},{\"id\":\"datacite.ntu\",\"type\":\"clients\"},{\"id\":\"datacite.transfer\",\"type\":\"clients\"},{\"id\":\"datacite.esrf\",\"type\":\"clients\"},{\"id\":\"datacite.globus\",\"type\":\"clients\"},{\"id\":\"datacite.rph\",\"type\":\"clients\"},{\"id\":\"datacite.dcppc\",\"type\":\"clients\"},{\"id\":\"datacite.dctest\",\"type\":\"clients\"},{\"id\":\"datacite.roce\",\"type\":\"clients\"},{\"id\":\"datacite.sfl\",\"type\":\"clients\"},{\"id\":\"datacite.hbp\",\"type\":\"clients\"},{\"id\":\"datacite.kaust\",\"type\":\"clients\"},{\"id\":\"datacite.nasa\",\"type\":\"clients\"},{\"id\":\"datacite.vivli\",\"type\":\"clients\"},{\"id\":\"datacite.uoregon\",\"type\":\"clients\"},{\"id\":\"datacite.csc\",\"type\":\"clients\"},{\"id\":\"datacite.noaa\",\"type\":\"clients\"},{\"id\":\"datacite.vt\",\"type\":\"clients\"},{\"id\":\"datacite.uwyo\",\"type\":\"clients\"},{\"id\":\"datacite.ucdirl\",\"type\":\"clients\"},{\"id\":\"datacite.ornl\",\"type\":\"clients\"},{\"id\":\"datacite.wotr\",\"type\":\"clients\"},{\"id\":\"datacite.ghsl\",\"type\":\"clients\"},{\"id\":\"demo.cos\",\"type\":\"clients\"},{\"id\":\"datacite.topmed\",\"type\":\"clients\"},{\"id\":\"datacite.argon\",\"type\":\"clients\"},{\"id\":\"datacite.nitrogen\",\"type\":\"clients\"},{\"id\":\"datacite.ddri\",\"type\":\"clients\"},{\"id\":\"datacite.services\",\"type\":\"clients\"},{\"id\":\"datacite.mary\",\"type\":\"clients\"},{\"id\":\"datacite.drexel\",\"type\":\"clients\"},{\"id\":\"datacite.cifor\",\"type\":\"clients\"},{\"id\":\"datacite.sarla\",\"type\":\"clients\"},{\"id\":\"datacite.matt\",\"type\":\"clients\"},{\"id\":\"datacite.becker\",\"type\":\"clients\"},{\"id\":\"datacite.ljwrdm\",\"type\":\"clients\"},{\"id\":\"datacite.wygyke\",\"type\":\"clients\"},{\"id\":\"datacite.paul\",\"type\":\"clients\"}]},\"prefixes\":{\"data\":[{\"id\":\"10.5438\",\"type\":\"prefixes\"},{\"id\":\"10.0138\",\"type\":\"prefixes\"},{\"id\":\"10.15497\",\"type\":\"prefixes\"},{\"id\":\"10.0158\",\"type\":\"prefixes\"},{\"id\":\"10.0159\",\"type\":\"prefixes\"},{\"id\":\"10.24367\",\"type\":\"prefixes\"},{\"id\":\"10.24365\",\"type\":\"prefixes\"},{\"id\":\"10.24364\",\"type\":\"prefixes\"},{\"id\":\"10.24409\",\"type\":\"prefixes\"},{\"id\":\"10.24360\",\"type\":\"prefixes\"},{\"id\":\"10.24361\",\"type\":\"prefixes\"},{\"id\":\"10.24408\",\"type\":\"prefixes\"},{\"id\":\"10.24362\",\"type\":\"prefixes\"},{\"id\":\"10.24407\",\"type\":\"prefixes\"},{\"id\":\"10.24363\",\"type\":\"prefixes\"},{\"id\":\"10.24354\",\"type\":\"prefixes\"},{\"id\":\"10.24356\",\"type\":\"prefixes\"},{\"id\":\"10.24355\",\"type\":\"prefixes\"},{\"id\":\"10.24357\",\"type\":\"prefixes\"},{\"id\":\"10.24359\",\"type\":\"prefixes\"},{\"id\":\"10.24411\",\"type\":\"prefixes\"},{\"id\":\"10.24410\",\"type\":\"prefixes\"},{\"id\":\"10.24415\",\"type\":\"prefixes\"},{\"id\":\"10.24414\",\"type\":\"prefixes\"},{\"id\":\"10.24413\",\"type\":\"prefixes\"},{\"id\":\"10.24412\",\"type\":\"prefixes\"},{\"id\":\"10.24419\",\"type\":\"prefixes\"},{\"id\":\"10.24418\",\"type\":\"prefixes\"},{\"id\":\"10.24417\",\"type\":\"prefixes\"},{\"id\":\"10.24416\",\"type\":\"prefixes\"},{\"id\":\"10.24420\",\"type\":\"prefixes\"},{\"id\":\"10.24421\",\"type\":\"prefixes\"},{\"id\":\"10.24427\",\"type\":\"prefixes\"},{\"id\":\"10.0310\",\"type\":\"prefixes\"},{\"id\":\"10.0311\",\"type\":\"prefixes\"},{\"id\":\"10.0312\",\"type\":\"prefixes\"},{\"id\":\"10.0307\",\"type\":\"prefixes\"},{\"id\":\"10.0308\",\"type\":\"prefixes\"},{\"id\":\"10.0309\",\"type\":\"prefixes\"},{\"id\":\"10.0320\",\"type\":\"prefixes\"},{\"id\":\"10.0321\",\"type\":\"prefixes\"},{\"id\":\"10.0322\",\"type\":\"prefixes\"},{\"id\":\"10.70002\",\"type\":\"prefixes\"},{\"id\":\"10.70001\",\"type\":\"prefixes\"},{\"id\":\"10.70048\",\"type\":\"prefixes\"},{\"id\":\"10.33575\",\"type\":\"prefixes\"},{\"id\":\"10.33576\",\"type\":\"prefixes\"},{\"id\":\"10.70102\",\"type\":\"prefixes\"},{\"id\":\"10.70126\",\"type\":\"prefixes\"},{\"id\":\"10.7968\",\"type\":\"prefixes\"},{\"id\":\"10.80067\",\"type\":\"prefixes\"},{\"id\":\"10.80220\",\"type\":\"prefixes\"}]},\"consortium\":{\"data\":{\"id\":\"dc\",\"type\":\"providers\"}}}},\"meta\":{\"repositoryCount\":61},\"included\":[{\"id\":\"dc\",\"type\":\"providers\",\"attributes\":{\"name\":\"DataCite Consortium\",\"displayName\":\"DataCite Consortium\",\"symbol\":\"DC\",\"website\":\"https://datacite.org\",\"systemEmail\":\"info@datacite.org\",\"groupEmail\":\"info@datacite.org\",\"description\":null,\"region\":\"EMEA\",\"country\":\"DE\",\"logoUrl\":null,\"memberType\":\"consortium\",\"organizationType\":\"serviceProvider\",\"focusArea\":\"general\",\"nonProfitStatus\":\"non-profit\",\"isActive\":true,\"hasPassword\":true,\"joined\":null,\"rorId\":\"https://ror.org/04wxnsj81\",\"technicalContact\":{},\"secondaryTechnicalContact\":{},\"billingContact\":{},\"secondaryBillingContact\":{},\"serviceContact\":{\"email\":\"info@datacite.org\"},\"secondaryServiceContact\":{},\"votingContact\":{\"email\":\"info@datacite.org\",\"givenName\":\"John\",\"familyName\":\"Doe\"},\"created\":\"2019-08-06T07:04:35.000Z\",\"updated\":\"2020-10-02T08:27:55.000Z\"},\"relationships\":{\"clients\":{\"data\":[]},\"prefixes\":{\"data\":[]},\"consortiumOrganizations\":{\"data\":[{\"id\":\"demo\",\"type\":\"providers\"},{\"id\":\"datacite\",\"type\":\"providers\"},{\"id\":\"sml\",\"type\":\"providers\"},{\"id\":\"bibtag\",\"type\":\"providers\"},{\"id\":\"workshop\",\"type\":\"providers\"},{\"id\":\"bka\",\"type\":\"providers\"},{\"id\":\"testmary\",\"type\":\"providers\"},{\"id\":\"rphco\",\"type\":\"providers\"},{\"id\":\"testaa\",\"type\":\"providers\"},{\"id\":\"marytest\",\"type\":\"providers\"},{\"id\":\"abcde\",\"type\":\"providers\"},{\"id\":\"uuaa\",\"type\":\"providers\"},{\"id\":\"uuuu\",\"type\":\"providers\"},{\"id\":\"ydtr\",\"type\":\"providers\"},{\"id\":\"vpmj\",\"type\":\"providers\"},{\"id\":\"clyy\",\"type\":\"providers\"},{\"id\":\"mgxi\",\"type\":\"providers\"},{\"id\":\"epow\",\"type\":\"providers\"},{\"id\":\"cnsrtrg\",\"type\":\"providers\"},{\"id\":\"moia\",\"type\":\"providers\"},{\"id\":\"xwpb\",\"type\":\"providers\"},{\"id\":\"qhen\",\"type\":\"providers\"}]}}}]}"
          },
          "cookies": [],
          "headers": [
            {
              "name": "cache-control",
              "value": "max-age=0, private, must-revalidate"
            },
            {
              "name": "content-type",
              "value": "application/json; charset=utf-8"
            },
            {
              "name": "x-credential-username",
              "value": "datacite"
            }
          ],
          "headersSize": 134,
          "httpVersion": "HTTP/1.1",
          "redirectURL": "",
          "status": 200,
          "statusText": "OK"
        },
        "startedDateTime": "2020-10-02T08:40:53.450Z",
        "time": 90,
        "timings": {
          "blocked": -1,
          "connect": -1,
          "dns": -1,
          "receive": 0,
          "send": 0,
          "ssl": -1,
          "wait": 90
        }
      }
    ],
    "pages": [],
    "version": "1.2"
  }
}
