{
  "log": {
    "_recordingName": "Acceptance | client_admin | user/visiting users",
    "browser": {
      "name": "Chrome",
      "version": "81.0.4044.129"
    },
    "creator": {
      "comment": "persister:rest",
      "name": "Polly.JS",
      "version": "4.0.4"
    },
    "entries": [
      {
        "_id": "241894a2047d1685f1f6483b6e9d0010",
        "_order": 0,
        "cache": {},
        "request": {
          "bodySize": 0,
          "cookies": [],
          "headers": [
            {
              "name": "accept",
              "value": "application/vnd.api+json"
            },
            {
              "name": "content-type",
              "value": "text/plain;charset=utf-8"
            }
          ],
          "headersSize": 852,
          "httpVersion": "HTTP/1.1",
          "method": "GET",
          "queryString": [
            {
              "name": "page",
              "value": {
                "number": "1",
                "size": "25"
              }
            },
            {
              "name": "provider-id",
              "value": ""
            },
            {
              "name": "query",
              "value": ""
            },
            {
              "name": "repository-id",
              "value": ""
            },
            {
              "name": "size",
              "value": "25"
            },
            {
              "name": "sort",
              "value": ""
            }
          ],
          "url": "https://api.test.datacite.org/users?page%5Bnumber%5D=1&page%5Bsize%5D=25&provider-id=&query=&repository-id=&size=25&sort="
        },
        "response": {
          "bodySize": 8217,
          "content": {
            "mimeType": "application/json; charset=utf-8",
            "size": 8217,
            "text": "{\"data\":[{\"id\":\"0000-0001-9354-2586\",\"type\":\"users\",\"attributes\":{\"givenName\":\"Dongmei\",\"familyName\":\" Deng\",\"name\":\"Dongmei  Deng\",\"orcid\":\"https://orcid.org/0000-0001-9354-2586\",\"github\":null,\"roleId\":\"user\",\"isActive\":false,\"created\":\"2020-02-09T17:40:00.000Z\",\"updated\":\"2020-02-09T17:40:00.000Z\"},\"relationships\":{}},{\"id\":\"0000-0002-0045-3769\",\"type\":\"users\",\"attributes\":{\"givenName\":\"Bernard\",\"familyName\":\"'t Hart\",\"name\":\"Bernard Marius 't Hart\",\"orcid\":\"https://orcid.org/0000-0002-0045-3769\",\"github\":null,\"roleId\":\"user\",\"isActive\":false,\"created\":\"2020-02-09T17:38:11.000Z\",\"updated\":\"2020-02-09T17:38:11.000Z\"},\"relationships\":{}},{\"id\":\"0000-0002-2220-6072\",\"type\":\"users\",\"attributes\":{\"givenName\":\"Michael\",\"familyName\":\"'t Sas-Rolfes\",\"name\":\"Michael 't Sas-Rolfes\",\"orcid\":\"https://orcid.org/0000-0002-2220-6072\",\"github\":null,\"roleId\":\"user\",\"isActive\":false,\"created\":\"2017-12-15T16:50:05.000Z\",\"updated\":\"2017-12-15T16:50:05.000Z\"},\"relationships\":{}},{\"id\":\"0000-0003-1564-2260\",\"type\":\"users\",\"attributes\":{\"givenName\":\"Ramadiani\",\"familyName\":\".\",\"name\":\"Ramadiani .\",\"orcid\":\"https://orcid.org/0000-0003-1564-2260\",\"github\":null,\"roleId\":\"user\",\"isActive\":false,\"created\":\"2018-04-01T11:06:30.000Z\",\"updated\":\"2018-04-01T18:22:06.000Z\"},\"relationships\":{}},{\"id\":\"0000-0002-6694-1650\",\"type\":\"users\",\"attributes\":{\"givenName\":\"A.F.M. Sajidul Qadir\",\"familyName\":\".\",\"name\":\"A.F.M. Sajidul Qadir .\",\"orcid\":\"https://orcid.org/0000-0002-6694-1650\",\"github\":null,\"roleId\":\"user\",\"isActive\":false,\"created\":\"2017-12-24T08:23:11.000Z\",\"updated\":\"2017-12-24T08:23:11.000Z\"},\"relationships\":{}},{\"id\":\"0000-0002-6097-6115\",\"type\":\"users\",\"attributes\":{\"givenName\":\"?\",\"familyName\":\"?\",\"name\":\"? ?\",\"orcid\":\"https://orcid.org/0000-0002-6097-6115\",\"github\":null,\"roleId\":\"user\",\"isActive\":false,\"created\":\"2019-12-06T20:40:58.000Z\",\"updated\":\"2019-12-06T20:40:59.000Z\"},\"relationships\":{}},{\"id\":\"0000-0001-6116-594X\",\"type\":\"users\",\"attributes\":{\"givenName\":\"Senthil Kumar\",\"familyName\":\"A\",\"name\":\"Senthil Kumar A\",\"orcid\":\"https://orcid.org/0000-0001-6116-594X\",\"github\":null,\"roleId\":\"user\",\"isActive\":false,\"created\":\"2015-11-17T11:57:10.000Z\",\"updated\":\"2015-11-17T11:57:10.000Z\"},\"relationships\":{}},{\"id\":\"0000-0002-6909-1823\",\"type\":\"users\",\"attributes\":{\"givenName\":\"Ramesh\",\"familyName\":\"A\",\"name\":\"Ramesh A\",\"orcid\":\"https://orcid.org/0000-0002-6909-1823\",\"github\":null,\"roleId\":\"user\",\"isActive\":false,\"created\":\"2015-12-01T11:08:45.000Z\",\"updated\":\"2017-11-13T15:59:45.000Z\"},\"relationships\":{}},{\"id\":\"0000-0002-2611-5178\",\"type\":\"users\",\"attributes\":{\"givenName\":\"Andrew Roobert\",\"familyName\":\"A\",\"name\":\"Andrew Roobert A\",\"orcid\":\"https://orcid.org/0000-0002-2611-5178\",\"github\":null,\"roleId\":\"user\",\"isActive\":false,\"created\":\"2018-01-16T18:34:37.000Z\",\"updated\":\"2018-01-16T18:34:37.000Z\"},\"relationships\":{}},{\"id\":\"0000-0001-8778-9902\",\"type\":\"users\",\"attributes\":{\"givenName\":\"Ebinesh\",\"familyName\":\"A\",\"name\":\"Ebinesh A.\",\"orcid\":\"https://orcid.org/0000-0001-8778-9902\",\"github\":null,\"roleId\":\"user\",\"isActive\":false,\"created\":\"2016-04-27T05:32:24.000Z\",\"updated\":\"2016-04-27T05:32:24.000Z\"},\"relationships\":{}},{\"id\":\"0000-0001-8707-9927\",\"type\":\"users\",\"attributes\":{\"givenName\":\"Sheik Abdullah\",\"familyName\":\"A\",\"name\":\"Sheik Abdullah A\",\"orcid\":\"https://orcid.org/0000-0001-8707-9927\",\"github\":null,\"roleId\":\"user\",\"isActive\":false,\"created\":\"2017-10-20T09:19:56.000Z\",\"updated\":\"2017-10-20T09:19:56.000Z\"},\"relationships\":{}},{\"id\":\"0000-0003-0357-8572\",\"type\":\"users\",\"attributes\":{\"givenName\":\"Aadhityan\",\"familyName\":\"A\",\"name\":\"Aadhityan A\",\"orcid\":\"https://orcid.org/0000-0003-0357-8572\",\"github\":null,\"roleId\":\"user\",\"isActive\":false,\"created\":\"2016-03-13T11:56:36.000Z\",\"updated\":\"2016-03-13T11:56:36.000Z\"},\"relationships\":{}},{\"id\":\"0000-0003-3722-7084\",\"type\":\"users\",\"attributes\":{\"givenName\":\"Hélde\",\"familyName\":\"A Domingos\",\"name\":\"Hélde A. Domingos\",\"orcid\":\"https://orcid.org/0000-0003-3722-7084\",\"github\":null,\"roleId\":\"user\",\"isActive\":false,\"created\":\"2017-06-20T21:27:00.000Z\",\"updated\":\"2017-06-20T21:28:02.000Z\"},\"relationships\":{}},{\"id\":\"0000-0003-3173-8852\",\"type\":\"users\",\"attributes\":{\"givenName\":\"muna\",\"familyName\":\"A M Elnemr\",\"name\":\"muna A M Elnemr\",\"orcid\":\"https://orcid.org/0000-0003-3173-8852\",\"github\":null,\"roleId\":\"user\",\"isActive\":false,\"created\":\"2018-01-24T11:32:21.000Z\",\"updated\":\"2018-01-24T11:36:09.000Z\"},\"relationships\":{}},{\"id\":\"0000-0002-0320-360X\",\"type\":\"users\",\"attributes\":{\"givenName\":\"Dr Abba\",\"familyName\":\"A. Abba\",\"name\":\"Dr Abba A. Abba\",\"orcid\":\"https://orcid.org/0000-0002-0320-360X\",\"github\":null,\"roleId\":\"user\",\"isActive\":false,\"created\":\"2018-05-11T18:19:20.000Z\",\"updated\":\"2018-05-11T18:19:20.000Z\"},\"relationships\":{}},{\"id\":\"0000-0002-4166-4263\",\"type\":\"users\",\"attributes\":{\"givenName\":\"Sreejith\",\"familyName\":\"A. G.\",\"name\":\"Sreejith A. G.\",\"orcid\":\"https://orcid.org/0000-0002-4166-4263\",\"github\":null,\"roleId\":\"user\",\"isActive\":false,\"created\":\"2016-11-01T04:46:18.000Z\",\"updated\":\"2016-11-01T04:46:18.000Z\"},\"relationships\":{}},{\"id\":\"0000-0001-9149-7371\",\"type\":\"users\",\"attributes\":{\"givenName\":\"Ignacio\",\"familyName\":\"A. Lazagabaster\",\"name\":\"Ignacio A. Lazagabaster\",\"orcid\":\"https://orcid.org/0000-0001-9149-7371\",\"github\":null,\"roleId\":\"user\",\"isActive\":false,\"created\":\"2016-11-21T22:46:06.000Z\",\"updated\":\"2016-11-21T22:46:43.000Z\"},\"relationships\":{}},{\"id\":\"0000-0001-7699-5962\",\"type\":\"users\",\"attributes\":{\"givenName\":\"Khumran\",\"familyName\":\"A. M.\",\"name\":\"Khumran A. M.\",\"orcid\":\"https://orcid.org/0000-0001-7699-5962\",\"github\":null,\"roleId\":\"user\",\"isActive\":false,\"created\":\"2015-12-22T16:39:09.000Z\",\"updated\":\"2015-12-22T16:39:13.000Z\"},\"relationships\":{}},{\"id\":\"0000-0002-5204-4457\",\"type\":\"users\",\"attributes\":{\"givenName\":\"Everton\",\"familyName\":\"A. Maciel\",\"name\":\"Everton A. Maciel\",\"orcid\":\"https://orcid.org/0000-0002-5204-4457\",\"github\":null,\"roleId\":\"user\",\"isActive\":false,\"created\":\"2016-10-13T00:26:01.000Z\",\"updated\":\"2016-10-13T00:26:01.000Z\"},\"relationships\":{}},{\"id\":\"0000-0001-7641-8655\",\"type\":\"users\",\"attributes\":{\"givenName\":\"Jucilene A.\",\"familyName\":\"A. Monteiro\",\"name\":\"Jucilene A. A. Monteiro\",\"orcid\":\"https://orcid.org/0000-0001-7641-8655\",\"github\":null,\"roleId\":\"user\",\"isActive\":false,\"created\":\"2018-02-19T22:38:40.000Z\",\"updated\":\"2018-02-19T22:38:40.000Z\"},\"relationships\":{}},{\"id\":\"0000-0002-1702-8929\",\"type\":\"users\",\"attributes\":{\"givenName\":\"Belal\",\"familyName\":\"A. Rakhieh\",\"name\":\"Belal A. Rakhieh\",\"orcid\":\"https://orcid.org/0000-0002-1702-8929\",\"github\":null,\"roleId\":\"user\",\"isActive\":false,\"created\":\"2018-02-08T17:20:57.000Z\",\"updated\":\"2018-02-08T17:20:57.000Z\"},\"relationships\":{}},{\"id\":\"0000-0003-3475-0363\",\"type\":\"users\",\"attributes\":{\"givenName\":\"Seidu\",\"familyName\":\"A. Richard\",\"name\":\"Seidu A. Richard\",\"orcid\":\"https://orcid.org/0000-0003-3475-0363\",\"github\":null,\"roleId\":\"user\",\"isActive\":false,\"created\":\"2017-12-31T16:16:23.000Z\",\"updated\":\"2017-12-31T16:16:23.000Z\"},\"relationships\":{}},{\"id\":\"0000-0003-0057-4752\",\"type\":\"users\",\"attributes\":{\"givenName\":\"Ali\",\"familyName\":\"A. Semendary\",\"name\":\"Ali A. Semendary\",\"orcid\":\"https://orcid.org/0000-0003-0057-4752\",\"github\":null,\"roleId\":\"user\",\"isActive\":false,\"created\":\"2020-02-09T17:38:26.000Z\",\"updated\":\"2020-02-09T17:38:26.000Z\"},\"relationships\":{}},{\"id\":\"0000-0001-8331-1389\",\"type\":\"users\",\"attributes\":{\"givenName\":\"Peter\",\"familyName\":\"Aaby\",\"name\":\"Peter Aaby\",\"orcid\":\"https://orcid.org/0000-0001-8331-1389\",\"github\":null,\"roleId\":\"user\",\"isActive\":false,\"created\":\"2017-09-26T08:01:43.000Z\",\"updated\":\"2017-09-26T08:01:43.000Z\"},\"relationships\":{}},{\"id\":\"0000-0002-3260-7005\",\"type\":\"users\",\"attributes\":{\"givenName\":\"Jesper\",\"familyName\":\"Aagaard\",\"name\":\"Jesper Aagaard\",\"orcid\":\"https://orcid.org/0000-0002-3260-7005\",\"github\":null,\"roleId\":\"user\",\"isActive\":false,\"created\":\"2016-03-10T19:26:25.000Z\",\"updated\":\"2016-03-10T19:26:25.000Z\"},\"relationships\":{}}],\"meta\":{\"total\":67002,\"totalPages\":400,\"page\":1},\"links\":{\"self\":\"https://api.test.datacite.org/users?page%5Bnumber%5D=1&page%5Bsize%5D=25&provider-id=&query=&repository-id=&size=25&sort=\",\"next\":\"https://api.test.datacite.org/users?page%5Bnumber%5D=2&page%5Bsize%5D=25&query=&sort=\"}}"
          },
          "cookies": [],
          "headers": [
            {
              "name": "cache-control",
              "value": "max-age=0, private, must-revalidate"
            },
            {
              "name": "content-type",
              "value": "application/json; charset=utf-8"
            }
          ],
          "headersSize": 101,
          "httpVersion": "HTTP/1.1",
          "redirectURL": "",
          "status": 200,
          "statusText": "OK"
        },
        "startedDateTime": "2020-05-04T16:40:46.284Z",
        "time": 146,
        "timings": {
          "blocked": -1,
          "connect": -1,
          "dns": -1,
          "receive": 0,
          "send": 0,
          "ssl": -1,
          "wait": 146
        }
      },
      {
        "_id": "3d1a3b7011a9b276f7ae3fafd4a4855c",
        "_order": 0,
        "cache": {},
        "request": {
          "bodySize": 0,
          "cookies": [],
          "headers": [
            {
              "name": "accept",
              "value": "application/vnd.api+json"
            },
            {
              "name": "content-type",
              "value": "text/plain;charset=utf-8"
            }
          ],
          "headersSize": 804,
          "httpVersion": "HTTP/1.1",
          "method": "GET",
          "queryString": [
            {
              "name": "include",
              "value": "provider"
            }
          ],
          "url": "https://api.test.datacite.org/repositories/datacite.test?include=provider"
        },
        "response": {
          "bodySize": 5996,
          "content": {
            "mimeType": "application/json; charset=utf-8",
            "size": 5996,
            "text": "{\"data\":{\"id\":\"datacite.test\",\"type\":\"repositories\",\"attributes\":{\"name\":\"DataCite Test Repository\",\"symbol\":\"DATACITE.TEST\",\"re3data\":null,\"opendoar\":null,\"year\":2017,\"systemEmail\":\"mfenner@datacite.org\",\"alternateName\":null,\"description\":\"datacite112\",\"clientType\":\"repository\",\"repositoryType\":[],\"language\":[],\"certificate\":[],\"domains\":\"*\",\"issn\":{},\"url\":null,\"created\":\"2017-07-13T15:15:33.000Z\",\"updated\":\"2020-05-04T16:33:47.000Z\",\"isActive\":true,\"hasPassword\":true,\"serviceContact\":{}},\"relationships\":{\"provider\":{\"data\":{\"id\":\"datacite\",\"type\":\"providers\"}},\"prefixes\":{\"data\":[{\"id\":\"10.0330\",\"type\":\"prefixes\"},{\"id\":\"10.80225\",\"type\":\"prefixes\"}]}}},\"meta\":{\"doiCount\":46,\"prefixCount\":2},\"included\":[{\"id\":\"datacite\",\"type\":\"providers\",\"attributes\":{\"name\":\"DataCite\",\"displayName\":\"DataCite\",\"symbol\":\"DATACITE\",\"website\":\"https://datacite.org\",\"systemEmail\":\"support@datacite.org\",\"groupEmail\":null,\"description\":null,\"region\":\"EMEA\",\"country\":\"DE\",\"logoUrl\":null,\"memberType\":\"consortium_organization\",\"organizationType\":null,\"focusArea\":null,\"nonProfitStatus\":\"non-profit\",\"isActive\":true,\"hasPassword\":true,\"joined\":null,\"rorId\":\"https://ror.org/04wxnsj81\",\"technicalContact\":{},\"secondaryTechnicalContact\":{},\"billingContact\":{},\"secondaryBillingContact\":{},\"serviceContact\":{},\"secondaryServiceContact\":{},\"votingContact\":{},\"created\":\"2011-12-07T13:41:07.000Z\",\"updated\":\"2020-04-24T18:52:25.000Z\"},\"relationships\":{\"clients\":{\"data\":[{\"id\":\"datacite.datacite\",\"type\":\"clients\"},{\"id\":\"datacite.pure\",\"type\":\"clients\"},{\"id\":\"datacite.rda\",\"type\":\"clients\"},{\"id\":\"datacite.harvard\",\"type\":\"clients\"},{\"id\":\"datacite.egi\",\"type\":\"clients\"},{\"id\":\"datacite.elsevier\",\"type\":\"clients\"},{\"id\":\"datacite.atmire\",\"type\":\"clients\"},{\"id\":\"datacite.cmcc\",\"type\":\"clients\"},{\"id\":\"datacite.axiom\",\"type\":\"clients\"},{\"id\":\"datacite.unibz\",\"type\":\"clients\"},{\"id\":\"datacite.edi\",\"type\":\"clients\"},{\"id\":\"datacite.nus\",\"type\":\"clients\"},{\"id\":\"datacite.test\",\"type\":\"clients\"},{\"id\":\"datacite.dataone\",\"type\":\"clients\"},{\"id\":\"datacite.ucb\",\"type\":\"clients\"},{\"id\":\"datacite.bl\",\"type\":\"clients\"},{\"id\":\"datacite.dce\",\"type\":\"clients\"},{\"id\":\"datacite.unavco\",\"type\":\"clients\"},{\"id\":\"datacite.sbgrid\",\"type\":\"clients\"},{\"id\":\"datacite.uva\",\"type\":\"clients\"},{\"id\":\"datacite.samson\",\"type\":\"clients\"},{\"id\":\"datacite.osu\",\"type\":\"clients\"},{\"id\":\"datacite.lcrnz\",\"type\":\"clients\"},{\"id\":\"datacite.nist\",\"type\":\"clients\"},{\"id\":\"datacite.ntu\",\"type\":\"clients\"},{\"id\":\"datacite.transfer\",\"type\":\"clients\"},{\"id\":\"datacite.esrf\",\"type\":\"clients\"},{\"id\":\"datacite.globus\",\"type\":\"clients\"},{\"id\":\"datacite.rph\",\"type\":\"clients\"},{\"id\":\"datacite.dcppc\",\"type\":\"clients\"},{\"id\":\"datacite.dctest\",\"type\":\"clients\"},{\"id\":\"datacite.roce\",\"type\":\"clients\"},{\"id\":\"datacite.sfl\",\"type\":\"clients\"},{\"id\":\"datacite.hbp\",\"type\":\"clients\"},{\"id\":\"datacite.kaust\",\"type\":\"clients\"},{\"id\":\"datacite.nasa\",\"type\":\"clients\"},{\"id\":\"datacite.vivli\",\"type\":\"clients\"},{\"id\":\"datacite.bri\",\"type\":\"clients\"},{\"id\":\"datacite.uoregon\",\"type\":\"clients\"},{\"id\":\"datacite.csc\",\"type\":\"clients\"},{\"id\":\"datacite.noaa\",\"type\":\"clients\"},{\"id\":\"datacite.vt\",\"type\":\"clients\"},{\"id\":\"datacite.uwyo\",\"type\":\"clients\"},{\"id\":\"datacite.ucdirl\",\"type\":\"clients\"},{\"id\":\"datacite.ornl\",\"type\":\"clients\"},{\"id\":\"datacite.wotr\",\"type\":\"clients\"},{\"id\":\"datacite.ghsl\",\"type\":\"clients\"},{\"id\":\"datacite.topmed\",\"type\":\"clients\"},{\"id\":\"datacite.argon\",\"type\":\"clients\"},{\"id\":\"datacite.nitrogen\",\"type\":\"clients\"},{\"id\":\"datacite.ddri\",\"type\":\"clients\"},{\"id\":\"datacite.testmary\",\"type\":\"clients\"},{\"id\":\"datacite.services\",\"type\":\"clients\"},{\"id\":\"datacite.mary\",\"type\":\"clients\"},{\"id\":\"datacite.drexel\",\"type\":\"clients\"},{\"id\":\"datacite.cifor\",\"type\":\"clients\"},{\"id\":\"datacite.sarla\",\"type\":\"clients\"},{\"id\":\"datacite.matt\",\"type\":\"clients\"},{\"id\":\"datacite.becker\",\"type\":\"clients\"},{\"id\":\"datacite.ljwrdm\",\"type\":\"clients\"},{\"id\":\"datacite.wygyke\",\"type\":\"clients\"},{\"id\":\"datacite.paul\",\"type\":\"clients\"}]},\"prefixes\":{\"data\":[{\"id\":\"10.5438\",\"type\":\"prefixes\"},{\"id\":\"10.0138\",\"type\":\"prefixes\"},{\"id\":\"10.15497\",\"type\":\"prefixes\"},{\"id\":\"10.0158\",\"type\":\"prefixes\"},{\"id\":\"10.0159\",\"type\":\"prefixes\"},{\"id\":\"10.24367\",\"type\":\"prefixes\"},{\"id\":\"10.24365\",\"type\":\"prefixes\"},{\"id\":\"10.24364\",\"type\":\"prefixes\"},{\"id\":\"10.24409\",\"type\":\"prefixes\"},{\"id\":\"10.24360\",\"type\":\"prefixes\"},{\"id\":\"10.24361\",\"type\":\"prefixes\"},{\"id\":\"10.24408\",\"type\":\"prefixes\"},{\"id\":\"10.24362\",\"type\":\"prefixes\"},{\"id\":\"10.24407\",\"type\":\"prefixes\"},{\"id\":\"10.24363\",\"type\":\"prefixes\"},{\"id\":\"10.24354\",\"type\":\"prefixes\"},{\"id\":\"10.24356\",\"type\":\"prefixes\"},{\"id\":\"10.24355\",\"type\":\"prefixes\"},{\"id\":\"10.24357\",\"type\":\"prefixes\"},{\"id\":\"10.24359\",\"type\":\"prefixes\"},{\"id\":\"10.24411\",\"type\":\"prefixes\"},{\"id\":\"10.24410\",\"type\":\"prefixes\"},{\"id\":\"10.24415\",\"type\":\"prefixes\"},{\"id\":\"10.24414\",\"type\":\"prefixes\"},{\"id\":\"10.24413\",\"type\":\"prefixes\"},{\"id\":\"10.24412\",\"type\":\"prefixes\"},{\"id\":\"10.24419\",\"type\":\"prefixes\"},{\"id\":\"10.24418\",\"type\":\"prefixes\"},{\"id\":\"10.24417\",\"type\":\"prefixes\"},{\"id\":\"10.24416\",\"type\":\"prefixes\"},{\"id\":\"10.24420\",\"type\":\"prefixes\"},{\"id\":\"10.24422\",\"type\":\"prefixes\"},{\"id\":\"10.24421\",\"type\":\"prefixes\"},{\"id\":\"10.24427\",\"type\":\"prefixes\"},{\"id\":\"10.0310\",\"type\":\"prefixes\"},{\"id\":\"10.0311\",\"type\":\"prefixes\"},{\"id\":\"10.0312\",\"type\":\"prefixes\"},{\"id\":\"10.0330\",\"type\":\"prefixes\"},{\"id\":\"10.0307\",\"type\":\"prefixes\"},{\"id\":\"10.0308\",\"type\":\"prefixes\"},{\"id\":\"10.0309\",\"type\":\"prefixes\"},{\"id\":\"10.0320\",\"type\":\"prefixes\"},{\"id\":\"10.0321\",\"type\":\"prefixes\"},{\"id\":\"10.0322\",\"type\":\"prefixes\"},{\"id\":\"10.70002\",\"type\":\"prefixes\"},{\"id\":\"10.70001\",\"type\":\"prefixes\"},{\"id\":\"10.70048\",\"type\":\"prefixes\"},{\"id\":\"10.33575\",\"type\":\"prefixes\"},{\"id\":\"10.33576\",\"type\":\"prefixes\"},{\"id\":\"10.70126\",\"type\":\"prefixes\"},{\"id\":\"10.7968\",\"type\":\"prefixes\"},{\"id\":\"10.80067\",\"type\":\"prefixes\"},{\"id\":\"10.80220\",\"type\":\"prefixes\"},{\"id\":\"10.80225\",\"type\":\"prefixes\"}]},\"consortium\":{\"data\":{\"id\":\"dc\",\"type\":\"providers\"}}}}]}"
          },
          "cookies": [],
          "headers": [
            {
              "name": "cache-control",
              "value": "max-age=0, private, must-revalidate"
            },
            {
              "name": "content-type",
              "value": "application/json; charset=utf-8"
            }
          ],
          "headersSize": 101,
          "httpVersion": "HTTP/1.1",
          "redirectURL": "",
          "status": 200,
          "statusText": "OK"
        },
        "startedDateTime": "2020-05-04T16:40:46.462Z",
        "time": 102,
        "timings": {
          "blocked": -1,
          "connect": -1,
          "dns": -1,
          "receive": 0,
          "send": 0,
          "ssl": -1,
          "wait": 102
        }
      },
      {
        "_id": "c92e7d824182d2c7fdd4cd17c64b68f9",
        "_order": 0,
        "cache": {},
        "request": {
          "bodySize": 0,
          "cookies": [],
          "headers": [
            {
              "name": "accept",
              "value": "application/vnd.api+json"
            },
            {
              "name": "content-type",
              "value": "text/plain;charset=utf-8"
            }
          ],
          "headersSize": 773,
          "httpVersion": "HTTP/1.1",
          "method": "GET",
          "queryString": [],
          "url": "https://api.test.datacite.org/providers/dc"
        },
        "response": {
          "bodySize": 1713,
          "content": {
            "mimeType": "application/json; charset=utf-8",
            "size": 1713,
            "text": "{\"data\":{\"id\":\"dc\",\"type\":\"providers\",\"attributes\":{\"name\":\"DataCite Consortium\",\"displayName\":\"DataCite Consortium\",\"symbol\":\"DC\",\"website\":\"https://datacite.org\",\"systemEmail\":\"info@datacite.org\",\"groupEmail\":\"info@datacite.org\",\"description\":null,\"region\":\"EMEA\",\"country\":\"DE\",\"logoUrl\":null,\"memberType\":\"consortium\",\"organizationType\":\"serviceProvider\",\"focusArea\":\"general\",\"nonProfitStatus\":\"non-profit\",\"isActive\":true,\"hasPassword\":true,\"joined\":null,\"rorId\":\"https://ror.org/04wxnsj81\",\"technicalContact\":{},\"secondaryTechnicalContact\":{},\"billingContact\":{},\"secondaryBillingContact\":{},\"serviceContact\":{\"email\":\"info@datacite.org\"},\"secondaryServiceContact\":{},\"votingContact\":{\"email\":\"info@datacite.org\",\"givenName\":\"John\",\"familyName\":\"Doe\"},\"created\":\"2019-08-06T07:04:35.000Z\",\"updated\":\"2020-05-04T16:33:35.000Z\"},\"relationships\":{\"clients\":{\"data\":[]},\"prefixes\":{\"data\":[]},\"consortiumOrganizations\":{\"data\":[{\"id\":\"demo\",\"type\":\"providers\"},{\"id\":\"datacite\",\"type\":\"providers\"},{\"id\":\"sml\",\"type\":\"providers\"},{\"id\":\"bibtag\",\"type\":\"providers\"},{\"id\":\"workshop\",\"type\":\"providers\"},{\"id\":\"bka\",\"type\":\"providers\"},{\"id\":\"testmary\",\"type\":\"providers\"},{\"id\":\"rphco\",\"type\":\"providers\"},{\"id\":\"testaa\",\"type\":\"providers\"},{\"id\":\"marytest\",\"type\":\"providers\"},{\"id\":\"abcde\",\"type\":\"providers\"},{\"id\":\"uuaa\",\"type\":\"providers\"},{\"id\":\"uuuu\",\"type\":\"providers\"},{\"id\":\"ydtr\",\"type\":\"providers\"},{\"id\":\"vpmj\",\"type\":\"providers\"},{\"id\":\"clyy\",\"type\":\"providers\"},{\"id\":\"mgxi\",\"type\":\"providers\"},{\"id\":\"epow\",\"type\":\"providers\"},{\"id\":\"cnsrtrg\",\"type\":\"providers\"},{\"id\":\"moia\",\"type\":\"providers\"},{\"id\":\"xwpb\",\"type\":\"providers\"}]}}},\"meta\":{\"repositoryCount\":0,\"consortiumOrganizationCount\":21}}"
          },
          "cookies": [],
          "headers": [
            {
              "name": "cache-control",
              "value": "max-age=0, private, must-revalidate"
            },
            {
              "name": "content-type",
              "value": "application/json; charset=utf-8"
            }
          ],
          "headersSize": 101,
          "httpVersion": "HTTP/1.1",
          "redirectURL": "",
          "status": 200,
          "statusText": "OK"
        },
        "startedDateTime": "2020-05-04T16:40:46.822Z",
        "time": 123,
        "timings": {
          "blocked": -1,
          "connect": -1,
          "dns": -1,
          "receive": 0,
          "send": 0,
          "ssl": -1,
          "wait": 123
        }
      }
    ],
    "pages": [],
    "version": "1.2"
  }
}
